EESchema Schematic File Version 4
EELAYER 30 0
EELAYER END
$Descr A3 16535 11693
encoding utf-8
Sheet 1 2
Title ""
Date "2020-04-06"
Rev "1"
Comp ""
Comment1 "Design for OSHPark 4-Layer Service"
Comment2 ""
Comment3 ""
Comment4 ""
$EndDescr
$Comp
L Device:D_Zener D1
U 1 1 5E878DFE
P 3025 2300
F 0 "D1" H 3150 2250 50  0000 C CNN
F 1 "NC" H 3150 2350 45  0000 C CNN
F 2 "DO216AA_1" H 3025 2300 50  0001 C CNN
F 3 "~" H 3025 2300 50  0001 C CNN
	1    3025 2300
	1    0    0    1   
$EndComp
$Comp
L Device:R R1
U 1 1 5E87D552
P 5025 3225
F 0 "R1" H 5100 3225 50  0000 L CNN
F 1 "100k" V 5025 3125 50  0000 L CNN
F 2 "R0402_1" V 4955 3225 50  0001 C CNN
F 3 "~" H 5025 3225 50  0001 C CNN
	1    5025 3225
	1    0    0    -1  
$EndComp
$Comp
L Device:R R5
U 1 1 5E87DD80
P 5725 2900
F 0 "R5" V 5625 2925 50  0000 C CNN
F 1 "10k" V 5725 2900 50  0000 C CNN
F 2 "R0402_1" V 5655 2900 50  0001 C CNN
F 3 "~" H 5725 2900 50  0001 C CNN
	1    5725 2900
	0    1    1    0   
$EndComp
$Comp
L power:+12V #PWR019
U 1 1 5E881F7D
P 1475 5175
F 0 "#PWR019" H 1475 5025 50  0001 C CNN
F 1 "+12V" H 1490 5348 50  0000 C CNN
F 2 "" H 1475 5175 50  0001 C CNN
F 3 "" H 1475 5175 50  0001 C CNN
	1    1475 5175
	1    0    0    -1  
$EndComp
$Comp
L Device:C C4
U 1 1 5E88308B
P 5950 3275
F 0 "C4" H 6000 3375 50  0000 L CNN
F 1 "680pF" H 5975 3175 50  0000 L CNN
F 2 "C0402_2" H 5988 3125 50  0001 C CNN
F 3 "~" H 5950 3275 50  0001 C CNN
	1    5950 3275
	1    0    0    -1  
$EndComp
$Comp
L power:-12V #PWR029
U 1 1 5E8857C8
P 1475 6375
F 0 "#PWR029" H 1475 6475 50  0001 C CNN
F 1 "-12V" H 1490 6548 50  0000 C CNN
F 2 "" H 1475 6375 50  0001 C CNN
F 3 "" H 1475 6375 50  0001 C CNN
	1    1475 6375
	-1   0    0    1   
$EndComp
$Comp
L power:GND #PWR011
U 1 1 5E88A1EF
P 2925 4300
F 0 "#PWR011" H 2925 4050 50  0001 C CNN
F 1 "GND" H 2930 4127 50  0000 C CNN
F 2 "" H 2925 4300 50  0001 C CNN
F 3 "" H 2925 4300 50  0001 C CNN
	1    2925 4300
	1    0    0    -1  
$EndComp
$Comp
L Device:R R9
U 1 1 5E891EF6
P 7675 2375
F 0 "R9" V 7575 2325 50  0000 L CNN
F 1 "32.4k" V 7675 2275 43  0000 L CNN
F 2 "R0402_1" V 7605 2375 50  0001 C CNN
F 3 "~" H 7675 2375 50  0001 C CNN
	1    7675 2375
	0    1    1    0   
$EndComp
$Comp
L Device:R R11
U 1 1 5E8935A8
P 8450 2375
F 0 "R11" V 8350 2325 50  0000 L CNN
F 1 "105k" V 8450 2275 50  0000 L CNN
F 2 "R0402_1" V 8380 2375 50  0001 C CNN
F 3 "~" H 8450 2375 50  0001 C CNN
	1    8450 2375
	0    1    1    0   
$EndComp
$Comp
L Transistor_BJT:BC857 T2
U 1 1 5E89FAAA
P 9375 3500
F 0 "T2" H 9250 3350 50  0000 L CNN
F 1 "BC857" H 9550 3600 50  0000 L CNN
F 2 "SOT23-BEC_1" H 9575 3425 50  0001 L CIN
F 3 "http://www.fairchildsemi.com/ds/BC/BC856.pdf" H 9375 3500 50  0001 L CNN
	1    9375 3500
	1    0    0    1   
$EndComp
$Comp
L Transistor_BJT:BC847 T1
U 1 1 5E8A044B
P 9375 2100
F 0 "T1" H 9275 2250 50  0000 L CNN
F 1 "BC847" H 9550 2025 50  0000 L CNN
F 2 "SOT23-BEC_1" H 9575 2025 50  0001 L CIN
F 3 "http://www.infineon.com/dgdl/Infineon-BC847SERIES_BC848SERIES_BC849SERIES_BC850SERIES-DS-v01_01-en.pdf?fileId=db3a304314dca389011541d4630a1657" H 9375 2100 50  0001 L CNN
	1    9375 2100
	1    0    0    -1  
$EndComp
$Comp
L Diode:BAT54S D3
U 1 1 5E8A85AF
P 10400 2825
F 0 "D3" V 10400 2850 50  0000 L CNN
F 1 "BAT54S" H 10075 2700 50  0000 L CNN
F 2 "SOT23-1G_1" H 10475 2950 50  0001 L CNN
F 3 "https://www.diodes.com/assets/Datasheets/ds11005.pdf" H 10280 2825 50  0001 C CNN
	1    10400 2825
	0    1    -1   0   
$EndComp
$Comp
L Device:C C10
U 1 1 5E8CCB53
P 1875 5350
F 0 "C10" V 2025 5300 50  0000 L CNN
F 1 "100nF" V 1725 5200 50  0000 L CNN
F 2 "C0402_2" H 1913 5200 50  0001 C CNN
F 3 "~" H 1875 5350 50  0001 C CNN
	1    1875 5350
	0    -1   -1   0   
$EndComp
$Comp
L Device:C C5
U 1 1 5E8CCB59
P 6125 4250
F 0 "C5" V 6050 4325 50  0000 L CNN
F 1 "100nF" V 6275 4150 50  0000 L CNN
F 2 "C0402_2" H 6163 4100 50  0001 C CNN
F 3 "~" H 6125 4250 50  0001 C CNN
	1    6125 4250
	0    1    1    0   
$EndComp
$Comp
L Device:R R2
U 1 1 5E8CD807
P 4950 4500
F 0 "R2" H 5000 4500 50  0000 L CNN
F 1 "100k" V 4950 4400 50  0000 L CNN
F 2 "R0402_1" V 4880 4500 50  0001 C CNN
F 3 "~" H 4950 4500 50  0001 C CNN
	1    4950 4500
	1    0    0    -1  
$EndComp
$Comp
L Device:R R3
U 1 1 5E8D5931
P 4950 5000
F 0 "R3" H 5000 5000 50  0000 L CNN
F 1 "100k" V 4950 4900 50  0000 L CNN
F 2 "R0402_1" V 4880 5000 50  0001 C CNN
F 3 "~" H 4950 5000 50  0001 C CNN
	1    4950 5000
	1    0    0    -1  
$EndComp
$Comp
L Device:C C3
U 1 1 5E8D63CA
P 5350 5900
F 0 "C3" H 5400 6000 50  0000 L CNN
F 1 "10nF" H 5400 5800 50  0000 L CNN
F 2 "C0805_1" H 5388 5750 50  0001 C CNN
F 3 "~" H 5350 5900 50  0001 C CNN
	1    5350 5900
	1    0    0    -1  
$EndComp
$Comp
L Diode:BAT54C D2
U 1 1 5E8DB0E0
P 7150 4450
F 0 "D2" V 7250 4600 50  0000 L CNN
F 1 "BAT54C" V 7075 4550 50  0000 L CNN
F 2 "SOT23-1G_1" H 7225 4575 50  0001 L CNN
F 3 "http://www.diodes.com/_files/datasheets/ds11005.pdf" H 7070 4450 50  0001 C CNN
	1    7150 4450
	0    -1   -1   0   
$EndComp
$Comp
L Device:R R10
U 1 1 5E8DD144
P 7900 5025
F 0 "R10" H 7975 5025 50  0000 L CNN
F 1 "100k" V 7900 4925 50  0000 L CNN
F 2 "R0402_1" V 7830 5025 50  0001 C CNN
F 3 "~" H 7900 5025 50  0001 C CNN
	1    7900 5025
	1    0    0    -1  
$EndComp
$Comp
L Device:R R8
U 1 1 5E8DD629
P 7400 5000
F 0 "R8" H 7475 5000 50  0000 L CNN
F 1 "1k" V 7400 4950 50  0000 L CNN
F 2 "R0402_1" V 7330 5000 50  0001 C CNN
F 3 "~" H 7400 5000 50  0001 C CNN
	1    7400 5000
	1    0    0    -1  
$EndComp
$Comp
L Device:C C9
U 1 1 5E8DEB54
P 7625 4450
F 0 "C9" V 7775 4375 50  0000 L CNN
F 1 "100nF" V 7475 4325 50  0000 L CNN
F 2 "C0402_2" H 7663 4300 50  0001 C CNN
F 3 "~" H 7625 4450 50  0001 C CNN
	1    7625 4450
	0    -1   -1   0   
$EndComp
$Comp
L Diode:BAT54S D4
U 1 1 5E8F2FE5
P 11025 2825
F 0 "D4" V 10950 2675 50  0000 L CNN
F 1 "BAT54S" V 11275 2525 50  0000 L CNN
F 2 "SOT23-1G_1" H 11100 2950 50  0001 L CNN
F 3 "https://www.diodes.com/assets/Datasheets/ds11005.pdf" H 10905 2825 50  0001 C CNN
	1    11025 2825
	0    -1   -1   0   
$EndComp
$Comp
L Device:R R15
U 1 1 5E8F46F6
P 10850 2850
F 0 "R15" H 10650 2850 50  0000 L CNN
F 1 "33" V 10850 2800 50  0000 L CNN
F 2 "R0402_1" V 10780 2850 50  0001 C CNN
F 3 "~" H 10850 2850 50  0001 C CNN
	1    10850 2850
	1    0    0    -1  
$EndComp
$Comp
L Device:R R12
U 1 1 5E8FB83E
P 9225 2825
F 0 "R12" V 9125 2775 50  0000 L CNN
F 1 "470" V 9225 2750 50  0000 L CNN
F 2 "R0402_1" V 9155 2825 50  0001 C CNN
F 3 "~" H 9225 2825 50  0001 C CNN
	1    9225 2825
	0    1    1    0   
$EndComp
$Comp
L Device:R R13
U 1 1 5E8FD0B0
P 9475 2550
F 0 "R13" H 9275 2550 50  0000 L CNN
F 1 "1.5" V 9475 2500 50  0000 L CNN
F 2 "R0402_1" V 9405 2550 50  0001 C CNN
F 3 "~" H 9475 2550 50  0001 C CNN
	1    9475 2550
	-1   0    0    1   
$EndComp
$Comp
L Device:R R14
U 1 1 5E8FE3AC
P 9475 3075
F 0 "R14" H 9275 3075 50  0000 L CNN
F 1 "1.5" V 9475 3025 50  0000 L CNN
F 2 "R0402_1" V 9405 3075 50  0001 C CNN
F 3 "~" H 9475 3075 50  0001 C CNN
	1    9475 3075
	-1   0    0    1   
$EndComp
$Comp
L Amplifier_Operational:LM358 IC3
U 2 1 5E906CDE
P 12750 2825
F 0 "IC3" H 12825 3000 50  0000 C CNN
F 1 "MC33172" H 12825 2625 50  0000 C CNN
F 2 "MX.A8_COMPOSANT_1" H 12750 2825 50  0001 C CNN
F 3 "http://www.ti.com/lit/ds/symlink/lm2904-n.pdf" H 12750 2825 50  0001 C CNN
	2    12750 2825
	-1   0    0    1   
$EndComp
$Comp
L Device:R R28
U 1 1 5E90EC3B
P 13450 2725
F 0 "R28" V 13350 2650 50  0000 L CNN
F 1 "32.4k" V 13450 2625 43  0000 L CNN
F 2 "R0402_1" V 13380 2725 50  0001 C CNN
F 3 "~" H 13450 2725 50  0001 C CNN
	1    13450 2725
	0    1    1    0   
$EndComp
$Comp
L Device:R R26
U 1 1 5E91080A
P 12800 2275
F 0 "R26" V 12700 2200 50  0000 L CNN
F 1 "137k" V 12800 2200 43  0000 L CNN
F 2 "R0402_1" V 12730 2275 50  0001 C CNN
F 3 "~" H 12800 2275 50  0001 C CNN
	1    12800 2275
	0    1    1    0   
$EndComp
$Comp
L Transistor_BJT:BC857 T4
U 1 1 5E91F7BF
P 11825 3525
F 0 "T4" H 11700 3400 50  0000 L CNN
F 1 "BC857" H 11975 3625 50  0000 L CNN
F 2 "SOT23-BEC_1" H 12025 3450 50  0001 L CIN
F 3 "http://www.fairchildsemi.com/ds/BC/BC856.pdf" H 11825 3525 50  0001 L CNN
	1    11825 3525
	-1   0    0    1   
$EndComp
$Comp
L Transistor_BJT:BC847 T3
U 1 1 5E91F7C5
P 11825 2125
F 0 "T3" H 11700 2250 50  0000 L CNN
F 1 "BC847" H 11975 2025 50  0000 L CNN
F 2 "SOT23-BEC_1" H 12025 2050 50  0001 L CIN
F 3 "http://www.infineon.com/dgdl/Infineon-BC847SERIES_BC848SERIES_BC849SERIES_BC850SERIES-DS-v01_01-en.pdf?fileId=db3a304314dca389011541d4630a1657" H 11825 2125 50  0001 L CNN
	1    11825 2125
	-1   0    0    -1  
$EndComp
$Comp
L Device:R R22
U 1 1 5E91F7CB
P 11975 2825
F 0 "R22" V 11875 2750 50  0000 L CNN
F 1 "470" V 11975 2750 50  0000 L CNN
F 2 "R0402_1" V 11905 2825 50  0001 C CNN
F 3 "~" H 11975 2825 50  0001 C CNN
	1    11975 2825
	0    1    1    0   
$EndComp
$Comp
L Device:R R19
U 1 1 5E91F7D1
P 11725 2550
F 0 "R19" H 11525 2550 50  0000 L CNN
F 1 "1.5" V 11725 2500 50  0000 L CNN
F 2 "R0402_1" V 11655 2550 50  0001 C CNN
F 3 "~" H 11725 2550 50  0001 C CNN
	1    11725 2550
	-1   0    0    1   
$EndComp
$Comp
L Device:R R20
U 1 1 5E91F7D7
P 11725 3100
F 0 "R20" H 11525 3100 50  0000 L CNN
F 1 "1.5" V 11725 3050 50  0000 L CNN
F 2 "R0402_1" V 11655 3100 50  0001 C CNN
F 3 "~" H 11725 3100 50  0001 C CNN
	1    11725 3100
	-1   0    0    1   
$EndComp
$Comp
L power:GND #PWR04
U 1 1 5E939516
P 13175 3050
F 0 "#PWR04" H 13175 2800 50  0001 C CNN
F 1 "GND" H 13180 2877 50  0000 C CNN
F 2 "" H 13175 3050 50  0001 C CNN
F 3 "" H 13175 3050 50  0001 C CNN
	1    13175 3050
	1    0    0    -1  
$EndComp
$Comp
L Device:CP C12
U 1 1 5E95457C
P 11350 3275
F 0 "C12" H 11375 3400 50  0000 L CNN
F 1 "470μF" H 11100 3150 50  0000 L CNN
F 2 "AX10X30_1" H 11388 3125 50  0001 C CNN
F 3 "~" H 11350 3275 50  0001 C CNN
	1    11350 3275
	1    0    0    -1  
$EndComp
$Comp
L power:+12V #PWR01
U 1 1 5E99DE4B
P 11725 1750
F 0 "#PWR01" H 11725 1600 50  0001 C CNN
F 1 "+12V" H 11740 1923 50  0000 C CNN
F 2 "" H 11725 1750 50  0001 C CNN
F 3 "" H 11725 1750 50  0001 C CNN
	1    11725 1750
	1    0    0    -1  
$EndComp
$Comp
L power:-12V #PWR010
U 1 1 5E99DE51
P 11725 3850
F 0 "#PWR010" H 11725 3950 50  0001 C CNN
F 1 "-12V" H 11740 4023 50  0000 C CNN
F 2 "" H 11725 3850 50  0001 C CNN
F 3 "" H 11725 3850 50  0001 C CNN
	1    11725 3850
	-1   0    0    1   
$EndComp
Wire Wire Line
	13050 2925 13175 2925
Wire Wire Line
	13175 2925 13175 3050
Wire Wire Line
	13050 2725 13175 2725
Wire Wire Line
	12950 2275 13175 2275
Wire Wire Line
	13175 2275 13175 2725
Connection ~ 13175 2725
Wire Wire Line
	13175 2725 13300 2725
Wire Wire Line
	12125 2825 12225 2825
Wire Wire Line
	12650 2275 12350 2275
Wire Wire Line
	12350 2275 12350 2825
Connection ~ 12350 2825
Wire Wire Line
	12350 2825 12450 2825
Wire Wire Line
	11725 3850 11725 3800
Wire Wire Line
	11725 3325 11725 3250
Wire Wire Line
	11725 2700 11725 2825
Wire Wire Line
	11825 2825 11725 2825
Connection ~ 11725 2825
Wire Wire Line
	11725 2825 11725 2950
Wire Wire Line
	11725 2400 11725 2325
Wire Wire Line
	12225 2825 12225 3525
Wire Wire Line
	12225 3525 12025 3525
Connection ~ 12225 2825
Wire Wire Line
	12225 2825 12350 2825
Wire Wire Line
	12025 2125 12225 2125
Wire Wire Line
	12225 2125 12225 2825
Wire Wire Line
	11725 1750 11725 1825
Wire Wire Line
	11725 3800 11350 3800
Wire Wire Line
	11350 3800 11350 3425
Connection ~ 11725 3800
Wire Wire Line
	11725 3800 11725 3725
Wire Wire Line
	11725 1825 11350 1825
Wire Wire Line
	11350 1825 11350 3125
Connection ~ 11725 1825
Wire Wire Line
	11725 1825 11725 1925
Wire Wire Line
	11725 2825 11225 2825
Wire Wire Line
	10400 2525 10400 2350
Wire Wire Line
	10400 2350 10625 2350
Wire Wire Line
	11025 2350 11025 2525
Wire Wire Line
	11025 3125 11025 3325
Wire Wire Line
	11025 3325 10850 3325
Wire Wire Line
	10400 3325 10400 3125
$Comp
L Device:C C30
U 1 1 5EA0990A
P 14025 5650
F 0 "C30" V 14175 5500 50  0000 L CNN
F 1 "100nF" V 13850 5550 50  0000 L CNN
F 2 "C0402_2" H 14063 5500 50  0001 C CNN
F 3 "~" H 14025 5650 50  0001 C CNN
	1    14025 5650
	0    -1   -1   0   
$EndComp
$Comp
L Device:R R69
U 1 1 5EA111CA
P 13550 6975
F 0 "R69" V 13450 6900 50  0000 L CNN
F 1 "200k" V 13550 6885 47  0000 L CNN
F 2 "R0402_1" V 13480 6975 50  0001 C CNN
F 3 "~" H 13550 6975 50  0001 C CNN
	1    13550 6975
	0    1    1    0   
$EndComp
$Comp
L Device:R R59
U 1 1 5EA15F73
P 13300 7200
F 0 "R59" H 13375 7200 50  0000 L CNN
F 1 "100k" V 13300 7100 50  0000 L CNN
F 2 "R0402_1" V 13230 7200 50  0001 C CNN
F 3 "~" H 13300 7200 50  0001 C CNN
	1    13300 7200
	1    0    0    -1  
$EndComp
$Comp
L Device:D_Zener D5
U 1 1 5EA18B6F
P 12725 6325
F 0 "D5" V 12679 6404 50  0000 L CNN
F 1 "BZX84C2V7" V 12825 6375 50  0000 L CNN
F 2 "SOT23-1G_1" H 12725 6325 50  0001 C CNN
F 3 "~" H 12725 6325 50  0001 C CNN
	1    12725 6325
	0    1    1    0   
$EndComp
$Comp
L Device:R R25
U 1 1 5EA20431
P 13000 6975
F 0 "R25" V 12900 6900 50  0000 L CNN
F 1 "NC" V 13000 6925 50  0000 L CNN
F 2 "R0402_1" V 12930 6975 50  0001 C CNN
F 3 "~" H 13000 6975 50  0001 C CNN
	1    13000 6975
	0    1    1    0   
$EndComp
$Comp
L power:GND #PWR032
U 1 1 5EA22D9C
P 13300 7425
F 0 "#PWR032" H 13300 7175 50  0001 C CNN
F 1 "GND" H 13305 7252 50  0000 C CNN
F 2 "" H 13300 7425 50  0001 C CNN
F 3 "" H 13300 7425 50  0001 C CNN
	1    13300 7425
	1    0    0    -1  
$EndComp
$Comp
L Device:R R24
U 1 1 5EA27893
P 12975 6075
F 0 "R24" V 12875 6000 50  0000 L CNN
F 1 "100k" V 12975 5975 50  0000 L CNN
F 2 "R0402_1" V 12905 6075 50  0001 C CNN
F 3 "~" H 12975 6075 50  0001 C CNN
	1    12975 6075
	0    1    1    0   
$EndComp
$Comp
L Device:R R29
U 1 1 5EA2DC60
P 14100 5300
F 0 "R29" V 14000 5250 50  0000 L CNN
F 1 "100k" V 14100 5200 50  0000 L CNN
F 2 "R0402_1" V 14030 5300 50  0001 C CNN
F 3 "~" H 14100 5300 50  0001 C CNN
	1    14100 5300
	0    1    1    0   
$EndComp
$Comp
L Device:R R23
U 1 1 5EA32C9B
P 12725 5800
F 0 "R23" H 12525 5800 50  0000 L CNN
F 1 "2.2K" V 12725 5700 50  0000 L CNN
F 2 "R0402_1" V 12655 5800 50  0001 C CNN
F 3 "~" H 12725 5800 50  0001 C CNN
	1    12725 5800
	-1   0    0    1   
$EndComp
$Comp
L Device:C C13
U 1 1 5EA46C5B
P 11775 6075
F 0 "C13" H 11600 5975 50  0000 L CNN
F 1 "33nF" H 11550 6200 50  0000 L CNN
F 2 "C0603_1" H 11813 5925 50  0001 C CNN
F 3 "~" H 11775 6075 50  0001 C CNN
	1    11775 6075
	-1   0    0    1   
$EndComp
$Comp
L power:GND #PWR025
U 1 1 5EA48DDB
P 11775 6450
F 0 "#PWR025" H 11775 6200 50  0001 C CNN
F 1 "GND" H 11780 6277 50  0000 C CNN
F 2 "" H 11775 6450 50  0001 C CNN
F 3 "" H 11775 6450 50  0001 C CNN
	1    11775 6450
	1    0    0    -1  
$EndComp
$Comp
L Device:R R18
U 1 1 5EA4A2CE
P 11575 6075
F 0 "R18" H 11650 6075 50  0000 L CNN
F 1 "150k" V 11575 5975 50  0000 L CNN
F 2 "R0402_1" V 11505 6075 50  0001 C CNN
F 3 "~" H 11575 6075 50  0001 C CNN
	1    11575 6075
	-1   0    0    1   
$EndComp
$Comp
L Device:R R17
U 1 1 5EA50B14
P 11200 5650
F 0 "R17" V 11300 5575 50  0000 L CNN
F 1 "10k" V 11200 5575 50  0000 L CNN
F 2 "R0402_1" V 11130 5650 50  0001 C CNN
F 3 "~" H 11200 5650 50  0001 C CNN
	1    11200 5650
	0    -1   -1   0   
$EndComp
$Comp
L Device:R R16
U 1 1 5EA525C4
P 11525 5450
F 0 "R16" V 11625 5375 50  0000 L CNN
F 1 "10k" V 11525 5375 50  0000 L CNN
F 2 "R0402_1" V 11455 5450 50  0001 C CNN
F 3 "~" H 11525 5450 50  0001 C CNN
	1    11525 5450
	0    -1   -1   0   
$EndComp
$Comp
L Device:R R21
U 1 1 5EA532D4
P 12125 5175
F 0 "R21" V 12025 5125 50  0000 L CNN
F 1 "150k" V 12125 5075 50  0000 L CNN
F 2 "R0402_1" V 12055 5175 50  0001 C CNN
F 3 "~" H 12125 5175 50  0001 C CNN
	1    12125 5175
	0    1    1    0   
$EndComp
$Comp
L Device:C C14
U 1 1 5EA56715
P 12325 4800
F 0 "C14" V 12175 4725 50  0000 L CNN
F 1 "33nF" V 12475 4725 50  0000 L CNN
F 2 "C0603_2" H 12363 4650 50  0001 C CNN
F 3 "~" H 12325 4800 50  0001 C CNN
	1    12325 4800
	0    1    1    0   
$EndComp
$Comp
L Device:R R27
U 1 1 5EA6F7BB
P 13250 5300
F 0 "R27" V 13150 5250 50  0000 L CNN
F 1 "68k" V 13250 5225 50  0000 L CNN
F 2 "R0402_1" V 13180 5300 50  0001 C CNN
F 3 "~" H 13250 5300 50  0001 C CNN
	1    13250 5300
	0    1    1    0   
$EndComp
$Comp
L power:GND #PWR017
U 1 1 5EA70AEB
P 13025 5375
F 0 "#PWR017" H 13025 5125 50  0001 C CNN
F 1 "GND" H 13030 5202 50  0000 C CNN
F 2 "" H 13025 5375 50  0001 C CNN
F 3 "" H 13025 5375 50  0001 C CNN
	1    13025 5375
	1    0    0    -1  
$EndComp
Wire Wire Line
	13875 5650 13800 5650
Wire Wire Line
	14175 5650 14225 5650
$Comp
L power:+5V #PWR018
U 1 1 5EA917AB
P 13800 5600
F 0 "#PWR018" H 13800 5450 50  0001 C CNN
F 1 "+5V" H 13815 5773 50  0000 C CNN
F 2 "" H 13800 5600 50  0001 C CNN
F 3 "" H 13800 5600 50  0001 C CNN
	1    13800 5600
	1    0    0    -1  
$EndComp
Wire Wire Line
	14250 5300 14325 5300
Wire Wire Line
	13950 5300 13525 5300
Connection ~ 13525 5300
Wire Wire Line
	13525 5300 13400 5300
Wire Wire Line
	13100 5300 13025 5300
Wire Wire Line
	13025 5300 13025 5375
Wire Wire Line
	12775 6975 12850 6975
Wire Wire Line
	13300 7350 13300 7425
Wire Wire Line
	13150 6975 13300 6975
Wire Wire Line
	13300 6975 13300 7050
Wire Wire Line
	13925 6975 13700 6975
Wire Wire Line
	13400 6975 13300 6975
Connection ~ 13300 6975
Wire Wire Line
	13125 6075 13300 6075
$Comp
L power:GND #PWR026
U 1 1 5EAE4D06
P 12725 6550
F 0 "#PWR026" H 12725 6300 50  0001 C CNN
F 1 "GND" H 12730 6377 50  0000 C CNN
F 2 "" H 12725 6550 50  0001 C CNN
F 3 "" H 12725 6550 50  0001 C CNN
	1    12725 6550
	1    0    0    -1  
$EndComp
Wire Wire Line
	12725 6475 12725 6550
Wire Wire Line
	12825 6075 12725 6075
Wire Wire Line
	12725 6075 12725 6175
Wire Wire Line
	12600 6075 12725 6075
Connection ~ 12725 6075
Wire Wire Line
	12725 5950 12725 6075
Wire Wire Line
	12450 5550 12725 5550
Wire Wire Line
	12725 5550 12725 5650
Wire Wire Line
	12275 5175 12725 5175
Wire Wire Line
	12725 5175 12725 5550
Connection ~ 12725 5550
Wire Wire Line
	12475 4800 12725 4800
Wire Wire Line
	12725 4800 12725 5175
Connection ~ 12725 5175
Wire Wire Line
	11975 5175 11775 5175
Wire Wire Line
	11775 5175 11775 5450
Wire Wire Line
	11775 5450 11850 5450
Wire Wire Line
	12175 4800 11775 4800
Wire Wire Line
	11775 4800 11775 5175
Connection ~ 11775 5175
Wire Wire Line
	11850 5650 11775 5650
Wire Wire Line
	11575 5650 11575 5925
Wire Wire Line
	11775 5925 11775 5650
Connection ~ 11775 5650
Wire Wire Line
	11775 5650 11575 5650
Wire Wire Line
	11775 6450 11775 6300
Wire Wire Line
	11775 6300 11575 6300
Wire Wire Line
	11575 6300 11575 6225
Connection ~ 11775 6300
Wire Wire Line
	11775 6300 11775 6225
Wire Wire Line
	11675 5450 11775 5450
Connection ~ 11775 5450
Wire Wire Line
	11350 5650 11575 5650
Connection ~ 11575 5650
$Comp
L Amplifier_Operational:LM358 IC2
U 2 1 5EA35D87
P 12150 5550
F 0 "IC2" H 12225 5725 50  0000 C CNN
F 1 "MC33172" H 12300 5375 50  0000 C CNN
F 2 "MX.A8_COMPOSANT_1" H 12150 5550 50  0001 C CNN
F 3 "http://www.ti.com/lit/ds/symlink/lm2904-n.pdf" H 12150 5550 50  0001 C CNN
	2    12150 5550
	1    0    0    1   
$EndComp
Wire Wire Line
	10075 2675 10075 2825
Wire Wire Line
	10200 2825 10075 2825
Connection ~ 10075 2825
Wire Wire Line
	10075 2825 10075 2975
Wire Wire Line
	9875 2675 9875 2825
$Comp
L power:-12V #PWR09
U 1 1 5EB6DA94
P 9475 3775
F 0 "#PWR09" H 9475 3875 50  0001 C CNN
F 1 "-12V" H 9490 3948 50  0000 C CNN
F 2 "" H 9475 3775 50  0001 C CNN
F 3 "" H 9475 3775 50  0001 C CNN
	1    9475 3775
	-1   0    0    1   
$EndComp
$Comp
L power:+12V #PWR02
U 1 1 5EB6F4DC
P 9475 1800
F 0 "#PWR02" H 9475 1650 50  0001 C CNN
F 1 "+12V" H 9490 1973 50  0000 C CNN
F 2 "" H 9475 1800 50  0001 C CNN
F 3 "" H 9475 1800 50  0001 C CNN
	1    9475 1800
	1    0    0    -1  
$EndComp
Wire Wire Line
	9475 2700 9475 2825
Wire Wire Line
	9875 2825 9475 2825
Connection ~ 9875 2825
Wire Wire Line
	9875 2825 9875 2975
Connection ~ 9475 2825
Wire Wire Line
	9475 2825 9475 2925
Wire Wire Line
	9475 3775 9475 3700
Wire Wire Line
	9475 3300 9475 3225
Wire Wire Line
	9475 2400 9475 2300
Wire Wire Line
	9475 1800 9475 1900
Wire Wire Line
	9475 2825 9375 2825
Wire Wire Line
	8950 3500 8950 2825
Wire Wire Line
	8950 2100 9175 2100
Wire Wire Line
	9075 2825 8950 2825
Connection ~ 8950 2825
Wire Wire Line
	8950 2825 8950 2100
Wire Wire Line
	8775 2825 8850 2825
Wire Wire Line
	8175 2725 8125 2725
Wire Wire Line
	8125 2725 8125 2375
Connection ~ 8125 2375
Wire Wire Line
	8125 2375 8300 2375
Wire Wire Line
	8600 2375 8850 2375
Wire Wire Line
	8850 2375 8850 2825
Connection ~ 8850 2825
Wire Wire Line
	8850 2825 8950 2825
$Comp
L power:GND #PWR03
U 1 1 5ED65B6D
P 7450 2500
F 0 "#PWR03" H 7450 2250 50  0001 C CNN
F 1 "GND" H 7455 2327 50  0000 C CNN
F 2 "" H 7450 2500 50  0001 C CNN
F 3 "" H 7450 2500 50  0001 C CNN
	1    7450 2500
	1    0    0    -1  
$EndComp
Wire Wire Line
	7525 2375 7450 2375
Wire Wire Line
	7450 2375 7450 2500
$Comp
L Amplifier_Operational:LM358 IC2
U 1 1 5EDFDF3B
P 6725 3000
F 0 "IC2" H 6800 3175 50  0000 C CNN
F 1 "MC33172" H 6800 2800 50  0000 C CNN
F 2 "MX.A8_COMPOSANT_1" H 6725 3000 50  0001 C CNN
F 3 "http://www.ti.com/lit/ds/symlink/lm2904-n.pdf" H 6725 3000 50  0001 C CNN
	1    6725 3000
	1    0    0    -1  
$EndComp
Wire Wire Line
	7025 3000 7150 3000
Wire Wire Line
	7150 3000 7150 3475
$Comp
L Device:R R7
U 1 1 5EE4BD32
P 6625 5225
F 0 "R7" H 6675 5225 50  0000 L CNN
F 1 "51.1k" V 6625 5125 43  0000 L CNN
F 2 "R0402_1" V 6555 5225 50  0001 C CNN
F 3 "~" H 6625 5225 50  0001 C CNN
	1    6625 5225
	1    0    0    -1  
$EndComp
Wire Wire Line
	5500 4750 5350 4750
Wire Wire Line
	4950 4750 4950 4650
Wire Wire Line
	4950 4850 4950 4750
Connection ~ 4950 4750
$Comp
L power:GND #PWR015
U 1 1 5EE5EBD1
P 4950 5300
F 0 "#PWR015" H 4950 5050 50  0001 C CNN
F 1 "GND" H 4955 5127 50  0000 C CNN
F 2 "" H 4950 5300 50  0001 C CNN
F 3 "" H 4950 5300 50  0001 C CNN
	1    4950 5300
	1    0    0    -1  
$EndComp
Wire Wire Line
	4950 5150 4950 5300
$Comp
L power:GND #PWR016
U 1 1 5EE6684B
P 5900 5325
F 0 "#PWR016" H 5900 5075 50  0001 C CNN
F 1 "GND" H 5905 5152 50  0000 C CNN
F 2 "" H 5900 5325 50  0001 C CNN
F 3 "" H 5900 5325 50  0001 C CNN
	1    5900 5325
	1    0    0    -1  
$EndComp
$Comp
L power:GND #PWR024
U 1 1 5EE6AC54
P 5350 6125
F 0 "#PWR024" H 5350 5875 50  0001 C CNN
F 1 "GND" H 5355 5952 50  0000 C CNN
F 2 "" H 5350 6125 50  0001 C CNN
F 3 "" H 5350 6125 50  0001 C CNN
	1    5350 6125
	1    0    0    -1  
$EndComp
Wire Wire Line
	5500 4950 5350 4950
Wire Wire Line
	5350 4950 5350 5625
Wire Wire Line
	5350 6125 5350 6050
Wire Wire Line
	5900 5250 5900 5325
Wire Wire Line
	5350 5625 6625 5625
Wire Wire Line
	6625 5625 6625 5375
Connection ~ 5350 5625
Wire Wire Line
	5350 5625 5350 5750
Wire Wire Line
	6300 4850 6625 4850
Wire Wire Line
	6625 4850 6625 5075
$Comp
L Device:R R6
U 1 1 5E8D84E7
P 5825 3975
F 0 "R6" V 5725 3925 50  0000 L CNN
F 1 "56k" V 5825 3900 50  0000 L CNN
F 2 "R0402_1" V 5755 3975 50  0001 C CNN
F 3 "~" H 5825 3975 50  0001 C CNN
	1    5825 3975
	0    1    1    0   
$EndComp
Wire Wire Line
	5975 4250 5900 4250
Wire Wire Line
	4950 4250 4950 4350
Wire Wire Line
	4950 4250 4700 4250
Connection ~ 4950 4250
Wire Wire Line
	5900 4450 5900 4250
Connection ~ 5900 4250
Wire Wire Line
	5900 4250 4950 4250
$Comp
L power:GND #PWR012
U 1 1 5EECCC0C
P 6400 4475
F 0 "#PWR012" H 6400 4225 50  0001 C CNN
F 1 "GND" H 6405 4302 50  0000 C CNN
F 2 "" H 6400 4475 50  0001 C CNN
F 3 "" H 6400 4475 50  0001 C CNN
	1    6400 4475
	1    0    0    -1  
$EndComp
Wire Wire Line
	6275 4250 6400 4250
Wire Wire Line
	6400 4250 6400 4475
Wire Wire Line
	5975 3975 6625 3975
Wire Wire Line
	6625 3975 6625 4850
Connection ~ 6625 4850
Wire Wire Line
	5675 3975 5350 3975
Wire Wire Line
	5350 3975 5350 4750
Connection ~ 5350 4750
Wire Wire Line
	5350 4750 4950 4750
Wire Wire Line
	7150 4750 7150 4850
Wire Wire Line
	7150 4850 6625 4850
$Comp
L power:GND #PWR013
U 1 1 5EF0B672
P 7400 5250
F 0 "#PWR013" H 7400 5000 50  0001 C CNN
F 1 "GND" H 7405 5077 50  0000 C CNN
F 2 "" H 7400 5250 50  0001 C CNN
F 3 "" H 7400 5250 50  0001 C CNN
	1    7400 5250
	1    0    0    -1  
$EndComp
$Comp
L power:GND #PWR014
U 1 1 5EF0B9B2
P 7900 5275
F 0 "#PWR014" H 7900 5025 50  0001 C CNN
F 1 "GND" H 7905 5102 50  0000 C CNN
F 2 "" H 7900 5275 50  0001 C CNN
F 3 "" H 7900 5275 50  0001 C CNN
	1    7900 5275
	1    0    0    -1  
$EndComp
Wire Wire Line
	7400 5250 7400 5150
Wire Wire Line
	7775 4450 7900 4450
Wire Wire Line
	7900 4450 7900 4875
Wire Wire Line
	7900 5275 7900 5175
$Comp
L Connector_Generic:Conn_01x07 J1
U 1 1 5EFBAE64
P 2100 2500
F 0 "J1" H 2100 2075 50  0000 C CNN
F 1 "Conn_01x07" H 2125 2925 50  0000 C CNN
F 2 "BAR7-3-2-COVIDIEN_1" H 2100 2500 50  0001 C CNN
F 3 "~" H 2100 2500 50  0001 C CNN
	1    2100 2500
	-1   0    0    1   
$EndComp
Text Notes 1175 2225 0    50   ~ 0
INHIB-STOP-INV-CPU
Text Notes 1175 2325 0    50   ~ 0
SUPPLY-BUZ-CPU
Text Notes 1175 2425 0    50   ~ 0
TEST-BUZZER-CPU
Text Notes 1175 2525 0    50   ~ 0
STOP-INV-CPU
Text Notes 1175 2625 0    50   ~ 0
PWM-BUZZER-CPU
Text Notes 1175 2725 0    50   ~ 0
+5V_CPU
Text Notes 1175 2825 0    50   ~ 0
GND
Wire Wire Line
	2300 2600 2925 2600
Wire Wire Line
	2300 2500 3125 2500
Wire Wire Line
	2300 2400 3325 2400
Wire Wire Line
	2875 2300 2300 2300
Wire Wire Line
	2300 2200 3525 2200
Wire Wire Line
	3525 4225 3325 4225
Connection ~ 3125 4225
Wire Wire Line
	3125 4225 2925 4225
Connection ~ 3325 4225
Wire Wire Line
	3325 4225 3125 4225
Wire Wire Line
	2800 2700 2300 2700
Wire Wire Line
	2350 2800 2300 2800
Wire Wire Line
	3175 2300 4325 2300
Wire Wire Line
	6425 2900 5950 2900
Wire Wire Line
	5950 2900 5950 3125
Wire Wire Line
	6425 3100 6325 3100
Wire Wire Line
	6325 3100 6325 3475
Wire Wire Line
	6325 3475 7150 3475
$Comp
L power:GND #PWR06
U 1 1 5F3608D2
P 5950 3500
F 0 "#PWR06" H 5950 3250 50  0001 C CNN
F 1 "GND" H 5955 3327 50  0000 C CNN
F 2 "" H 5950 3500 50  0001 C CNN
F 3 "" H 5950 3500 50  0001 C CNN
	1    5950 3500
	1    0    0    -1  
$EndComp
Wire Wire Line
	5950 3425 5950 3500
$Comp
L Device:C C6
U 1 1 5F37E1A4
P 6600 2400
F 0 "C6" V 6750 2325 50  0000 L CNN
F 1 "680pF" V 6425 2275 50  0000 L CNN
F 2 "C0402_2" H 6638 2250 50  0001 C CNN
F 3 "~" H 6600 2400 50  0001 C CNN
	1    6600 2400
	0    -1   -1   0   
$EndComp
Wire Wire Line
	7150 2400 7150 3000
Connection ~ 7150 3000
Wire Wire Line
	6750 2400 7150 2400
$Comp
L power:GND #PWR07
U 1 1 5F3CF03A
P 5025 3525
F 0 "#PWR07" H 5025 3275 50  0001 C CNN
F 1 "GND" H 5030 3352 50  0000 C CNN
F 2 "" H 5025 3525 50  0001 C CNN
F 3 "" H 5025 3525 50  0001 C CNN
	1    5025 3525
	1    0    0    -1  
$EndComp
Wire Wire Line
	5025 2900 5025 3075
Wire Wire Line
	5025 3375 5025 3525
Connection ~ 5950 2900
$Comp
L Device:R R4
U 1 1 5F44A2C5
P 5250 2900
F 0 "R4" V 5150 2900 50  0000 C CNN
F 1 "10k" V 5250 2900 50  0000 C CNN
F 2 "R0402_1" V 5180 2900 50  0001 C CNN
F 3 "~" H 5250 2900 50  0001 C CNN
	1    5250 2900
	0    1    1    0   
$EndComp
Wire Wire Line
	5100 2900 5025 2900
Wire Wire Line
	5400 2900 5475 2900
Wire Wire Line
	5875 2900 5950 2900
Wire Wire Line
	5475 2900 5475 2400
Wire Wire Line
	5475 2400 6450 2400
Connection ~ 5475 2900
Wire Wire Line
	5475 2900 5575 2900
Wire Wire Line
	10850 2700 10850 2350
Connection ~ 10850 2350
Wire Wire Line
	10850 3000 10850 3325
Connection ~ 10850 3325
Wire Wire Line
	10850 3325 10400 3325
Wire Wire Line
	7350 4450 7400 4450
Wire Wire Line
	7400 4850 7400 4450
Connection ~ 7400 4450
Wire Wire Line
	7400 4450 7475 4450
Wire Wire Line
	10850 2350 10625 2350
Wire Wire Line
	10850 3325 10850 5450
Wire Wire Line
	10850 5450 11375 5450
Wire Wire Line
	11050 5650 10625 5650
Wire Wire Line
	10625 5650 10625 2350
Connection ~ 10625 2350
Wire Wire Line
	10850 2350 11025 2350
Wire Wire Line
	7150 3475 7150 4150
Connection ~ 7150 3475
Wire Wire Line
	13950 4450 13950 2725
Wire Wire Line
	13950 2725 13600 2725
$Comp
L Amplifier_Operational:LM358 IC3
U 3 1 5F9FC870
P 1575 5825
F 0 "IC3" H 1275 5975 50  0000 C CNN
F 1 "MC33172" H 1225 5625 50  0000 C CNN
F 2 "MX.A8_COMPOSANT_1" H 1575 5825 50  0001 C CNN
F 3 "http://www.ti.com/lit/ds/symlink/lm2904-n.pdf" H 1575 5825 50  0001 C CNN
	3    1575 5825
	1    0    0    -1  
$EndComp
Wire Wire Line
	1475 6125 1475 6250
Wire Wire Line
	1475 5175 1475 5350
$Comp
L Device:C C11
U 1 1 5FA59D9B
P 1875 6250
F 0 "C11" V 2025 6200 50  0000 L CNN
F 1 "100nF" V 1725 6125 50  0000 L CNN
F 2 "C0402_2" H 1913 6100 50  0001 C CNN
F 3 "~" H 1875 6250 50  0001 C CNN
	1    1875 6250
	0    -1   -1   0   
$EndComp
Wire Wire Line
	1725 6250 1475 6250
Connection ~ 1475 6250
Wire Wire Line
	1475 6250 1475 6375
Wire Wire Line
	1725 5350 1475 5350
Connection ~ 1475 5350
Wire Wire Line
	1475 5350 1475 5525
$Comp
L power:GND #PWR022
U 1 1 5FAA2BE8
P 2200 5475
F 0 "#PWR022" H 2200 5225 50  0001 C CNN
F 1 "GND" H 2205 5302 50  0000 C CNN
F 2 "" H 2200 5475 50  0001 C CNN
F 3 "" H 2200 5475 50  0001 C CNN
	1    2200 5475
	1    0    0    -1  
$EndComp
$Comp
L power:GND #PWR028
U 1 1 5FAA3129
P 2175 6350
F 0 "#PWR028" H 2175 6100 50  0001 C CNN
F 1 "GND" H 2180 6177 50  0000 C CNN
F 2 "" H 2175 6350 50  0001 C CNN
F 3 "" H 2175 6350 50  0001 C CNN
	1    2175 6350
	1    0    0    -1  
$EndComp
Wire Wire Line
	2200 5350 2200 5475
Wire Wire Line
	2025 5350 2200 5350
Wire Wire Line
	2025 6250 2175 6250
Wire Wire Line
	2175 6250 2175 6350
$Comp
L power:+12V #PWR020
U 1 1 5FB28637
P 3050 5175
F 0 "#PWR020" H 3050 5025 50  0001 C CNN
F 1 "+12V" H 3065 5348 50  0000 C CNN
F 2 "" H 3050 5175 50  0001 C CNN
F 3 "" H 3050 5175 50  0001 C CNN
	1    3050 5175
	1    0    0    -1  
$EndComp
$Comp
L power:-12V #PWR031
U 1 1 5FB2863D
P 3050 6375
F 0 "#PWR031" H 3050 6475 50  0001 C CNN
F 1 "-12V" H 3065 6548 50  0000 C CNN
F 2 "" H 3050 6375 50  0001 C CNN
F 3 "" H 3050 6375 50  0001 C CNN
	1    3050 6375
	-1   0    0    1   
$EndComp
$Comp
L Device:C C7
U 1 1 5FB28643
P 3450 5350
F 0 "C7" V 3600 5300 50  0000 L CNN
F 1 "100nF" V 3300 5200 50  0000 L CNN
F 2 "C0402_2" H 3488 5200 50  0001 C CNN
F 3 "~" H 3450 5350 50  0001 C CNN
	1    3450 5350
	0    -1   -1   0   
$EndComp
Wire Wire Line
	3050 6125 3050 6250
Wire Wire Line
	3050 5175 3050 5350
$Comp
L Device:C C8
U 1 1 5FB28651
P 3450 6250
F 0 "C8" V 3600 6200 50  0000 L CNN
F 1 "100nF" V 3300 6125 50  0000 L CNN
F 2 "C0402_1" H 3488 6100 50  0001 C CNN
F 3 "~" H 3450 6250 50  0001 C CNN
	1    3450 6250
	0    -1   -1   0   
$EndComp
Wire Wire Line
	3300 6250 3050 6250
Connection ~ 3050 6250
Wire Wire Line
	3050 6250 3050 6375
Wire Wire Line
	3300 5350 3050 5350
Connection ~ 3050 5350
Wire Wire Line
	3050 5350 3050 5525
$Comp
L power:GND #PWR023
U 1 1 5FB2865D
P 3775 5475
F 0 "#PWR023" H 3775 5225 50  0001 C CNN
F 1 "GND" H 3780 5302 50  0000 C CNN
F 2 "" H 3775 5475 50  0001 C CNN
F 3 "" H 3775 5475 50  0001 C CNN
	1    3775 5475
	1    0    0    -1  
$EndComp
$Comp
L power:GND #PWR030
U 1 1 5FB28663
P 3750 6350
F 0 "#PWR030" H 3750 6100 50  0001 C CNN
F 1 "GND" H 3755 6177 50  0000 C CNN
F 2 "" H 3750 6350 50  0001 C CNN
F 3 "" H 3750 6350 50  0001 C CNN
	1    3750 6350
	1    0    0    -1  
$EndComp
Wire Wire Line
	3775 5350 3775 5475
Wire Wire Line
	3600 5350 3775 5350
Wire Wire Line
	3600 6250 3750 6250
Wire Wire Line
	3750 6250 3750 6350
Wire Wire Line
	7900 4450 13950 4450
Connection ~ 7900 4450
Wire Wire Line
	7900 4450 7900 2925
Wire Wire Line
	8175 2925 7900 2925
Wire Wire Line
	7825 2375 8125 2375
Wire Wire Line
	8950 3500 9175 3500
Wire Wire Line
	4250 2600 4325 2600
Wire Wire Line
	4250 2750 4325 2750
Connection ~ 2925 4225
Wire Wire Line
	2925 4225 2925 4300
Wire Wire Line
	3525 4175 3525 4225
Wire Wire Line
	3325 4175 3325 4225
Wire Wire Line
	3125 4175 3125 4225
Wire Wire Line
	2925 4225 2925 4175
Connection ~ 2925 2900
Wire Wire Line
	3650 2900 2925 2900
Wire Wire Line
	2925 2600 2925 2900
Connection ~ 3325 2600
Wire Wire Line
	3650 2600 3325 2600
Wire Wire Line
	3325 2400 3325 2600
Wire Wire Line
	3525 2450 3650 2450
Connection ~ 3525 2450
Wire Wire Line
	3525 2200 3525 2450
Wire Wire Line
	3125 2750 3650 2750
Connection ~ 3125 2750
Wire Wire Line
	3125 2500 3125 2750
Wire Wire Line
	2925 2900 2925 3800
Wire Wire Line
	3325 2600 3325 3800
Connection ~ 4550 3325
Wire Wire Line
	4550 3300 4550 3325
$Comp
L power:+5V #PWR05
U 1 1 5F8D454B
P 4550 3300
F 0 "#PWR05" H 4550 3150 50  0001 C CNN
F 1 "+5V" H 4675 3425 50  0000 C CNN
F 2 "" H 4550 3300 50  0001 C CNN
F 3 "" H 4550 3300 50  0001 C CNN
	1    4550 3300
	1    0    0    -1  
$EndComp
Wire Wire Line
	3525 2450 3525 3800
$Comp
L power:GND #PWR08
U 1 1 5F26F747
P 4550 3750
F 0 "#PWR08" H 4550 3500 50  0001 C CNN
F 1 "GND" H 4555 3577 50  0000 C CNN
F 2 "" H 4550 3750 50  0001 C CNN
F 3 "" H 4550 3750 50  0001 C CNN
	1    4550 3750
	1    0    0    -1  
$EndComp
Wire Wire Line
	4550 3325 4550 3375
Wire Wire Line
	4300 3325 4550 3325
Wire Wire Line
	3125 2750 3125 3800
$Comp
L Device:C C2
U 1 1 5E87D053
P 4550 3525
F 0 "C2" H 4665 3571 50  0000 L CNN
F 1 "220pF" H 4600 3425 50  0000 L CNN
F 2 "C0402_1" H 4588 3375 50  0001 C CNN
F 3 "~" H 4550 3525 50  0001 C CNN
	1    4550 3525
	1    0    0    -1  
$EndComp
$Comp
L Device:L_Core_Ferrite L1
U 1 1 5E87AB3F
P 4150 3325
F 0 "L1" V 4250 3325 50  0000 C CNN
F 1 "Core_Ferrite" V 4075 3300 50  0000 C CNN
F 2 "RC1206_1" H 4150 3325 50  0001 C CNN
F 3 "~" H 4150 3325 50  0001 C CNN
	1    4150 3325
	0    -1   -1   0   
$EndComp
$Comp
L Device:Fuse FU1
U 1 1 5E879854
P 3750 3325
F 0 "FU1" V 3675 3325 50  0000 C CNN
F 1 "500mA" V 3825 3325 50  0000 C CNN
F 2 "F6126_1" V 3680 3325 50  0001 C CNN
F 3 "~" H 3750 3325 50  0001 C CNN
	1    3750 3325
	0    1    1    0   
$EndComp
Wire Wire Line
	4550 3675 4550 3725
Wire Wire Line
	4550 3725 2350 3725
Wire Wire Line
	2350 2800 2350 3725
Connection ~ 4550 3725
Wire Wire Line
	4550 3725 4550 3750
Wire Wire Line
	4000 3325 3900 3325
Wire Wire Line
	3600 3325 2800 3325
Wire Wire Line
	2800 2700 2800 3325
Wire Wire Line
	4325 2450 4250 2450
Wire Wire Line
	4250 2900 5025 2900
Connection ~ 5025 2900
Wire Wire Line
	3650 7925 3825 7925
Text HLabel 3825 7925 2    50   Output ~ 0
SUPPLY-BUZ
$Sheet
S 2450 7725 1200 900 
U 5E89C6B8
F0 "GR106768_buzzer_charger" 50
F1 "GR106768_buzzer_charger.sch" 50
F2 "BUZ-ACT" I L 2450 7925 50 
F3 "SUPPLY-BUZ" O R 3650 7925 50 
F4 "STOP-INV" I L 2450 8025 50 
F5 "INHIB-STOP-INV" I L 2450 8125 50 
F6 "VBAT" O R 3650 8025 50 
F7 "VCHARG" O R 3650 8125 50 
$EndSheet
Wire Wire Line
	2300 8125 2450 8125
Wire Wire Line
	2300 8025 2450 8025
Wire Wire Line
	2300 7925 2450 7925
Text HLabel 2300 7925 0    50   Input ~ 0
BUZ-ACT
Text HLabel 2300 8025 0    50   Input ~ 0
STOP-INV
Text HLabel 2300 8125 0    50   Input ~ 0
INHIB-STOP-INV
Text HLabel 3825 8125 2    50   Output ~ 0
VCHARG
Wire Wire Line
	3650 8025 3825 8025
Text HLabel 3825 8025 2    50   Output ~ 0
VBAT
Text HLabel 12775 6975 0    50   Input ~ 0
VBAT
Text HLabel 12600 6075 0    50   Output ~ 0
BUZ-ACT
Text HLabel 4700 4250 0    50   Input ~ 0
SUPPLY-BUZ
Text HLabel 4325 2750 2    50   Output ~ 0
STOP-INV
Text HLabel 4325 2600 2    50   Input ~ 0
TESTBUZ
Text HLabel 4325 2450 2    50   Output ~ 0
INHIB-STOP-INV
Text HLabel 4325 2300 2    50   Input ~ 0
SUPPLY-BUZ
Wire Wire Line
	3650 8125 3825 8125
Text HLabel 13925 6975 2    50   Input ~ 0
VCHARG
Wire Wire Line
	14225 5650 14225 5725
Text HLabel 14525 6175 2    50   Output ~ 0
TESTBUZ
Wire Wire Line
	13800 6575 13800 6475
Wire Wire Line
	14325 5300 14325 6175
$Comp
L power:GND #PWR021
U 1 1 5EA0E815
P 14225 5725
F 0 "#PWR021" H 14225 5475 50  0001 C CNN
F 1 "GND" H 14230 5552 50  0000 C CNN
F 2 "" H 14225 5725 50  0001 C CNN
F 3 "" H 14225 5725 50  0001 C CNN
	1    14225 5725
	1    0    0    -1  
$EndComp
$Comp
L power:GND #PWR027
U 1 1 5E9F8A01
P 13800 6575
F 0 "#PWR027" H 13800 6325 50  0001 C CNN
F 1 "GND" H 13805 6402 50  0000 C CNN
F 2 "" H 13800 6575 50  0001 C CNN
F 3 "" H 13800 6575 50  0001 C CNN
	1    13800 6575
	1    0    0    -1  
$EndComp
$Comp
L Amplifier_Operational:LMV321 IC4
U 1 1 5E9F6105
P 13900 6175
F 0 "IC4" H 14050 6325 50  0000 L CNN
F 1 "LMV321" H 14075 6075 50  0000 L CNN
F 2 "SOT23-5_1" H 13900 6175 50  0001 L CNN
F 3 "http://www.ti.com/lit/ds/symlink/lmv324.pdf" H 13900 6175 50  0001 C CNN
	1    13900 6175
	1    0    0    -1  
$EndComp
Wire Wire Line
	13300 6075 13300 6975
Wire Wire Line
	13300 6075 13600 6075
Connection ~ 13300 6075
Wire Wire Line
	13525 6275 13600 6275
Wire Wire Line
	13525 5300 13525 6275
Wire Wire Line
	13800 5600 13800 5650
Wire Wire Line
	13800 5875 13800 5650
Connection ~ 13800 5650
Connection ~ 14325 6175
Wire Wire Line
	14325 6175 14525 6175
Wire Wire Line
	14200 6175 14325 6175
$Comp
L GR106768_Buzzer:BLA31BD221SN4D FI1
U 1 1 5FB00CBD
P 3950 2700
F 0 "FI1" H 3950 3150 50  0000 C CNN
F 1 "BLA31BD221SN4D" H 3950 2350 50  0000 C CNN
F 2 "WE-FA_1" H 3550 2200 50  0001 L BNN
F 3 "1206 Murata" H 3650 1650 50  0001 L BNN
F 4 "Murata Electronics" H 3600 2100 50  0001 L BNN "Champ5"
	1    3950 2700
	1    0    0    -1  
$EndComp
$Comp
L GR106768_Buzzer:C_NETWORK C1
U 1 1 5FB0366D
P 3225 4000
F 0 "C1" H 3678 4059 50  0000 L CNN
F 1 "47pF" H 3678 3968 50  0000 L CNN
F 2 "C0612-4_1" H 2963 3850 50  0001 C CNN
F 3 "~" H 2925 4000 50  0001 C CNN
	1    3225 4000
	1    0    0    -1  
$EndComp
$Comp
L GR106768_Buzzer:LMC7211 IC1
U 1 1 5FB0685F
P 5900 4850
F 0 "IC1" H 5975 5100 50  0000 L CNN
F 1 "LMC7211" H 5975 4575 50  0000 L CNN
F 2 "SOT23-5_1" H 5700 4850 50  0001 C CNN
F 3 "" H 5700 4850 50  0001 C CNN
	1    5900 4850
	1    0    0    -1  
$EndComp
$Comp
L Amplifier_Operational:LM358 IC3
U 1 1 5E8962E9
P 8475 2825
F 0 "IC3" H 8550 2650 50  0000 C CNN
F 1 "MC33172" H 8600 3000 50  0000 C CNN
F 2 "MX.A8_COMPOSANT_1" H 8475 2825 50  0001 C CNN
F 3 "http://www.ti.com/lit/ds/symlink/lm2904-n.pdf" H 8475 2825 50  0001 C CNN
	1    8475 2825
	1    0    0    1   
$EndComp
$Comp
L Amplifier_Operational:LM358 IC2
U 3 1 5FB28649
P 3150 5825
F 0 "IC2" H 2850 5975 50  0000 C CNN
F 1 "MC33172" H 2800 5625 50  0000 C CNN
F 2 "MX.A8_COMPOSANT_1" H 3150 5825 50  0001 C CNN
F 3 "http://www.ti.com/lit/ds/symlink/lm2904-n.pdf" H 3150 5825 50  0001 C CNN
	3    3150 5825
	1    0    0    -1  
$EndComp
$Comp
L buz:Buzzer BUZ1
U 1 1 5E96E8FA
P 9975 2575
F 0 "BUZ1" V 10250 2675 50  0000 R CNN
F 1 "PKM33EPH" V 10175 2775 50  0000 R CNN
F 2 "footprint_buzzer:PKM33EPH-1201C_1" V 9950 2675 50  0001 C CNN
F 3 "~" V 9950 2675 50  0001 C CNN
	1    9975 2575
	0    -1   -1   0   
$EndComp
$Comp
L buz:Buzzer BUZ2
U 1 1 5E971F0E
P 9975 3075
F 0 "BUZ2" V 10250 3175 50  0000 R CNN
F 1 "PKM33EPH" V 10175 3275 50  0000 R CNN
F 2 "footprint_buzzer:PKM33EPH-1201C_1" V 9950 3175 50  0001 C CNN
F 3 "~" V 9950 3175 50  0001 C CNN
	1    9975 3075
	0    1    1    0   
$EndComp
$EndSCHEMATC
