EESchema Schematic File Version 4
EELAYER 30 0
EELAYER END
$Descr A3 16535 11693
encoding utf-8
Sheet 2 2
Title "GR106768 buzzer charger"
Date "2020-04-04"
Rev "1.0"
Comp ""
Comment1 ""
Comment2 ""
Comment3 ""
Comment4 ""
$EndDescr
$Comp
L power:+12V #PWR034
U 1 1 5E89E8AE
P 1250 2100
F 0 "#PWR034" H 1250 1950 50  0001 C CNN
F 1 "+12V" H 1265 2273 50  0000 C CNN
F 2 "" H 1250 2100 50  0001 C CNN
F 3 "" H 1250 2100 50  0001 C CNN
	1    1250 2100
	1    0    0    -1  
$EndComp
$Comp
L Device:R R66
U 1 1 5E89EC72
P 2975 1975
F 0 "R66" V 2875 1975 50  0000 C CNN
F 1 "10k" V 2975 1975 50  0000 C CNN
F 2 "R0402_1" V 2905 1975 50  0001 C CNN
F 3 "~" H 2975 1975 50  0001 C CNN
	1    2975 1975
	0    1    1    0   
$EndComp
$Comp
L Device:R R33
U 1 1 5E89F963
P 1700 2750
F 0 "R33" H 1575 2750 50  0000 C CNN
F 1 "1k" V 1700 2750 50  0000 C CNN
F 2 "R0402_1" V 1630 2750 50  0001 C CNN
F 3 "~" H 1700 2750 50  0001 C CNN
	1    1700 2750
	-1   0    0    1   
$EndComp
$Comp
L Diode:BZX84Cxx D7
U 1 1 5E89FF76
P 1700 3300
F 0 "D7" V 1725 3375 50  0000 L CNN
F 1 "BZX84C5V1" V 1800 2850 50  0000 L CNN
F 2 "SOT23-1G_1" H 1700 3125 50  0001 C CNN
F 3 "https://diotec.com/tl_files/diotec/files/pdf/datasheets/bzx84c2v4.pdf" H 1700 3300 50  0001 C CNN
	1    1700 3300
	0    1    1    0   
$EndComp
$Comp
L Device:C C15
U 1 1 5E8A0888
P 1250 2700
F 0 "C15" H 1300 2800 50  0000 L CNN
F 1 "100nF" H 1275 2600 50  0000 L CNN
F 2 "C0402_2" H 1288 2550 50  0001 C CNN
F 3 "~" H 1250 2700 50  0001 C CNN
	1    1250 2700
	1    0    0    -1  
$EndComp
$Comp
L Device:R R36
U 1 1 5E8A1611
P 3475 2425
F 0 "R36" V 3375 2425 50  0000 C CNN
F 1 "33" V 3475 2425 50  0000 C CNN
F 2 "R0805_1" V 3405 2425 50  0001 C CNN
F 3 "~" H 3475 2425 50  0001 C CNN
	1    3475 2425
	0    1    1    0   
$EndComp
$Comp
L Device:R R37
U 1 1 5E8A1CEB
P 3475 2800
F 0 "R37" V 3375 2800 50  0000 C CNN
F 1 "220" V 3475 2800 50  0000 C CNN
F 2 "R0402_1" V 3405 2800 50  0001 C CNN
F 3 "~" H 3475 2800 50  0001 C CNN
	1    3475 2800
	0    1    1    0   
$EndComp
$Comp
L Device:D_Schottky D8
U 1 1 5E89B119
P 4000 2425
F 0 "D8" H 4000 2325 50  0000 C CNN
F 1 "MBRM120" H 3950 2550 50  0000 C CNN
F 2 "DO216AA_1" H 4000 2425 50  0001 C CNN
F 3 "~" H 4000 2425 50  0001 C CNN
	1    4000 2425
	-1   0    0    1   
$EndComp
$Comp
L Diode:BZX84Cxx D15
U 1 1 5E89BB9F
P 4350 2625
F 0 "D15" V 4304 2704 50  0000 L CNN
F 1 "BZX84_B6V8" V 4395 2704 50  0000 L CNN
F 2 "SOT23-1G_1" H 4350 2450 50  0001 C CNN
F 3 "https://diotec.com/tl_files/diotec/files/pdf/datasheets/bzx84c2v4.pdf" H 4350 2625 50  0001 C CNN
	1    4350 2625
	0    1    1    0   
$EndComp
$Comp
L Device:Battery BAT1
U 1 1 5E89FEB7
P 5800 3100
F 0 "BAT1" H 5908 3146 50  0000 L CNN
F 1 "Battery" H 5908 3055 50  0000 L CNN
F 2 "footprint_buzzer:Varta_55615604940" V 5800 3160 50  0001 C CNN
F 3 "~" V 5800 3160 50  0001 C CNN
	1    5800 3100
	1    0    0    -1  
$EndComp
$Comp
L Device:LED LD1
U 1 1 5E8A01A4
P 4475 4025
F 0 "LD1" V 4575 3975 50  0000 R CNN
F 1 "NC" V 4450 3925 50  0000 R CNN
F 2 "D0603_1" H 4475 4025 50  0001 C CNN
F 3 "~" H 4475 4025 50  0001 C CNN
	1    4475 4025
	0    -1   -1   0   
$EndComp
$Comp
L Device:R R38
U 1 1 5E8A0795
P 4125 3375
F 0 "R38" H 4200 3375 50  0000 L CNN
F 1 "100k" V 4125 3275 50  0000 L CNN
F 2 "R0402_1" V 4055 3375 50  0001 C CNN
F 3 "~" H 4125 3375 50  0001 C CNN
	1    4125 3375
	1    0    0    -1  
$EndComp
$Comp
L Device:R R39
U 1 1 5E8A09B2
P 4125 3775
F 0 "R39" H 4200 3775 50  0000 L CNN
F 1 "100k" V 4125 3675 50  0000 L CNN
F 2 "R0402_1" V 4055 3775 50  0001 C CNN
F 3 "~" H 4125 3775 50  0001 C CNN
	1    4125 3775
	1    0    0    -1  
$EndComp
$Comp
L Device:R R35
U 1 1 5E8A1D11
P 2750 4975
F 0 "R35" H 2825 4975 50  0000 L CNN
F 1 "33k" V 2750 4900 50  0000 L CNN
F 2 "R0402_1" V 2680 4975 50  0001 C CNN
F 3 "~" H 2750 4975 50  0001 C CNN
	1    2750 4975
	1    0    0    -1  
$EndComp
$Comp
L Device:R R34
U 1 1 5E8A1F79
P 2425 4625
F 0 "R34" V 2525 4625 50  0000 C CNN
F 1 "10k" V 2425 4625 50  0000 C CNN
F 2 "R0402_1" V 2355 4625 50  0001 C CNN
F 3 "~" H 2425 4625 50  0001 C CNN
	1    2425 4625
	0    1    1    0   
$EndComp
$Comp
L Switch:SW_SPDT SW1
U 1 1 5E8A33F6
P 6075 3850
F 0 "SW1" V 6025 3650 50  0000 L CNN
F 1 "SW_SPDT" V 6075 3950 50  0000 L CNN
F 2 "NK236_1_1" H 6075 3850 50  0001 C CNN
F 3 "~" H 6075 3850 50  0001 C CNN
	1    6075 3850
	0    1    1    0   
$EndComp
$Comp
L Device:C C31
U 1 1 5E8A58B8
P 15475 3700
F 0 "C31" H 15500 3825 50  0000 L CNN
F 1 "100nF" H 15500 3600 50  0000 L CNN
F 2 "C0402_2" H 15513 3550 50  0001 C CNN
F 3 "~" H 15475 3700 50  0001 C CNN
	1    15475 3700
	1    0    0    -1  
$EndComp
$Comp
L Diode:BAT54C D6
U 1 1 5E8A8654
P 1675 4425
F 0 "D6" V 1575 4525 50  0000 L CNN
F 1 "BAT54C" V 1775 4525 50  0000 L CNN
F 2 "SOT23-1G_1" H 1750 4550 50  0001 L CNN
F 3 "http://www.diodes.com/_files/datasheets/ds11005.pdf" H 1595 4425 50  0001 C CNN
	1    1675 4425
	0    -1   1    0   
$EndComp
$Comp
L Device:R R30
U 1 1 5E8A92D4
P 1400 4000
F 0 "R30" V 1300 4000 50  0000 C CNN
F 1 "0" V 1400 4000 50  0000 C CNN
F 2 "R0402_1" V 1330 4000 50  0001 C CNN
F 3 "~" H 1400 4000 50  0001 C CNN
	1    1400 4000
	0    1    1    0   
$EndComp
$Comp
L Device:R R31
U 1 1 5E8A9641
P 1400 4850
F 0 "R31" V 1300 4850 50  0000 C CNN
F 1 "0" V 1400 4850 50  0000 C CNN
F 2 "R0402_1" V 1330 4850 50  0001 C CNN
F 3 "~" H 1400 4850 50  0001 C CNN
	1    1400 4850
	0    1    1    0   
$EndComp
$Comp
L Device:L L2
U 1 1 5E8C0A82
P 13025 3375
F 0 "L2" V 13100 3375 50  0000 C CNN
F 1 "10μH" V 12975 3375 50  0000 C CNN
F 2 "WETPC-S_1" H 13025 3375 50  0001 C CNN
F 3 "~" H 13025 3375 50  0001 C CNN
	1    13025 3375
	0    -1   -1   0   
$EndComp
$Comp
L Device:L L3
U 1 1 5E96380A
P 12925 6000
F 0 "L3" V 13025 6000 50  0000 C CNN
F 1 "15μH" V 12850 6000 50  0000 C CNN
F 2 "WETPC-S_1" H 12925 6000 50  0001 C CNN
F 3 "~" H 12925 6000 50  0001 C CNN
	1    12925 6000
	0    -1   -1   0   
$EndComp
$Comp
L power:+12V #PWR041
U 1 1 5E965347
P 15475 3200
F 0 "#PWR041" H 15475 3050 50  0001 C CNN
F 1 "+12V" H 15490 3373 50  0000 C CNN
F 2 "" H 15475 3200 50  0001 C CNN
F 3 "" H 15475 3200 50  0001 C CNN
	1    15475 3200
	1    0    0    -1  
$EndComp
$Comp
L Device:C C28
U 1 1 5E966C43
P 14900 3700
F 0 "C28" H 14925 3800 50  0000 L CNN
F 1 "100pF" H 14925 3600 50  0000 L CNN
F 2 "C0402_2" H 14938 3550 50  0001 C CNN
F 3 "~" H 14900 3700 50  0001 C CNN
	1    14900 3700
	1    0    0    -1  
$EndComp
$Comp
L lt3471:LT3471 IC8
U 1 1 5E96B49A
P 12825 4375
F 0 "IC8" H 12225 4825 50  0000 C CNN
F 1 "LT3471" H 13100 4025 50  0000 C CNN
F 2 "DFN10_1" H 12825 3975 50  0001 C CNN
F 3 "https://www.analog.com/media/en/technical-documentation/data-sheets/3471fb.pdf" H 12825 4325 50  0001 C CNN
	1    12825 4375
	-1   0    0    -1  
$EndComp
$Comp
L Device:CP C22
U 1 1 5E96C675
P 12600 2900
F 0 "C22" H 12400 3050 50  0000 L CNN
F 1 "10μF" H 12375 2800 50  0000 L CNN
F 2 "RC1206_1" H 12638 2750 50  0001 C CNN
F 3 "~" H 12600 2900 50  0001 C CNN
	1    12600 2900
	1    0    0    -1  
$EndComp
$Comp
L Device:R R57
U 1 1 5E96ECF1
P 14650 3900
F 0 "R57" H 14700 3900 50  0000 L CNN
F 1 "54.9k" V 14650 3800 43  0000 L CNN
F 2 "R0402_1" V 14580 3900 50  0001 C CNN
F 3 "~" H 14650 3900 50  0001 C CNN
	1    14650 3900
	1    0    0    -1  
$EndComp
$Comp
L Device:R R58
U 1 1 5E974C49
P 14650 4650
F 0 "R58" H 14725 4650 50  0000 L CNN
F 1 "4.99k" V 14650 4550 43  0000 L CNN
F 2 "R0402_1" V 14580 4650 50  0001 C CNN
F 3 "~" H 14650 4650 50  0001 C CNN
	1    14650 4650
	1    0    0    -1  
$EndComp
$Comp
L power:GND #PWR047
U 1 1 5E975EE9
P 15475 4025
F 0 "#PWR047" H 15475 3775 50  0001 C CNN
F 1 "GND" H 15480 3852 50  0000 C CNN
F 2 "" H 15475 4025 50  0001 C CNN
F 3 "" H 15475 4025 50  0001 C CNN
	1    15475 4025
	1    0    0    -1  
$EndComp
Wire Wire Line
	1250 2100 1250 2425
Connection ~ 1250 2425
Wire Wire Line
	1250 2425 1250 2550
Wire Wire Line
	1700 2600 1700 2425
Connection ~ 1700 2425
Wire Wire Line
	1700 2425 1250 2425
Wire Wire Line
	2825 1975 1700 1975
Wire Wire Line
	1700 1975 1700 2425
$Comp
L power:GND #PWR038
U 1 1 5E8BECDF
P 1250 2975
F 0 "#PWR038" H 1250 2725 50  0001 C CNN
F 1 "GND" H 1255 2802 50  0000 C CNN
F 2 "" H 1250 2975 50  0001 C CNN
F 3 "" H 1250 2975 50  0001 C CNN
	1    1250 2975
	1    0    0    -1  
$EndComp
Wire Wire Line
	1250 2850 1250 2975
$Comp
L power:GND #PWR044
U 1 1 5E8C2540
P 1700 3525
F 0 "#PWR044" H 1700 3275 50  0001 C CNN
F 1 "GND" H 1705 3352 50  0000 C CNN
F 2 "" H 1700 3525 50  0001 C CNN
F 3 "" H 1700 3525 50  0001 C CNN
	1    1700 3525
	1    0    0    -1  
$EndComp
Wire Wire Line
	1700 3525 1700 3450
Wire Wire Line
	3325 2425 3250 2425
Wire Wire Line
	3125 1975 3725 1975
Wire Wire Line
	3725 1975 3725 2425
Wire Wire Line
	3725 2800 3625 2800
Wire Wire Line
	3625 2425 3725 2425
Connection ~ 3725 2425
Wire Wire Line
	3725 2425 3725 2800
Wire Wire Line
	3850 2425 3725 2425
$Comp
L power:GND #PWR036
U 1 1 5E8D0614
P 4350 2825
F 0 "#PWR036" H 4350 2575 50  0001 C CNN
F 1 "GND" H 4355 2652 50  0000 C CNN
F 2 "" H 4350 2825 50  0001 C CNN
F 3 "" H 4350 2825 50  0001 C CNN
	1    4350 2825
	1    0    0    -1  
$EndComp
Wire Wire Line
	4350 2425 4350 2475
Wire Wire Line
	4150 2425 4350 2425
Wire Wire Line
	4350 2775 4350 2825
Wire Wire Line
	1700 2900 1700 3025
Wire Wire Line
	3325 2800 2950 2800
Wire Wire Line
	2950 2800 2950 2725
Wire Wire Line
	1700 2425 2650 2425
Wire Wire Line
	2950 2800 2950 3475
Wire Wire Line
	2950 4325 3025 4325
Connection ~ 2950 2800
$Comp
L power:GND #PWR048
U 1 1 5E94F1D0
P 2650 4200
F 0 "#PWR048" H 2650 3950 50  0001 C CNN
F 1 "GND" H 2500 4150 50  0000 C CNN
F 2 "" H 2650 4200 50  0001 C CNN
F 3 "" H 2650 4200 50  0001 C CNN
	1    2650 4200
	1    0    0    -1  
$EndComp
Wire Wire Line
	2650 4125 2650 4200
Wire Wire Line
	2650 3725 2650 3475
Wire Wire Line
	2650 3475 2950 3475
Connection ~ 2950 3475
Wire Wire Line
	2950 3475 2950 4325
$Comp
L power:GND #PWR046
U 1 1 5E95AFAB
P 4125 4000
F 0 "#PWR046" H 4125 3750 50  0001 C CNN
F 1 "GND" H 4125 3850 50  0000 C CNN
F 2 "" H 4125 4000 50  0001 C CNN
F 3 "" H 4125 4000 50  0001 C CNN
	1    4125 4000
	1    0    0    -1  
$EndComp
Wire Wire Line
	4125 3625 4125 3575
Wire Wire Line
	4125 3575 3875 3575
Wire Wire Line
	3875 3575 3875 4325
Wire Wire Line
	3875 4325 3825 4325
Connection ~ 4125 3575
Wire Wire Line
	4125 3575 4125 3525
Wire Wire Line
	4125 4000 4125 3925
Wire Wire Line
	4125 3225 4125 3025
Wire Wire Line
	4125 3025 2125 3025
Connection ~ 1700 3025
Wire Wire Line
	1700 3025 1700 3150
$Comp
L power:GND #PWR055
U 1 1 5E967967
P 2750 5250
F 0 "#PWR055" H 2750 5000 50  0001 C CNN
F 1 "GND" H 2750 5100 50  0000 C CNN
F 2 "" H 2750 5250 50  0001 C CNN
F 3 "" H 2750 5250 50  0001 C CNN
	1    2750 5250
	1    0    0    -1  
$EndComp
Wire Wire Line
	3025 4625 2750 4625
Wire Wire Line
	2750 4625 2750 4825
Wire Wire Line
	2750 5250 2750 5125
$Comp
L Device:C C16
U 1 1 5E9712FB
P 2125 4950
F 0 "C16" H 2175 5075 50  0000 L CNN
F 1 "100nF" H 2150 4850 50  0000 L CNN
F 2 "C0402_2" H 2163 4800 50  0001 C CNN
F 3 "~" H 2125 4950 50  0001 C CNN
	1    2125 4950
	1    0    0    -1  
$EndComp
$Comp
L power:GND #PWR054
U 1 1 5E972DD2
P 2125 5225
F 0 "#PWR054" H 2125 4975 50  0001 C CNN
F 1 "GND" H 2125 5075 50  0000 C CNN
F 2 "" H 2125 5225 50  0001 C CNN
F 3 "" H 2125 5225 50  0001 C CNN
	1    2125 5225
	1    0    0    -1  
$EndComp
Wire Wire Line
	2125 5225 2125 5100
Wire Wire Line
	2125 4800 2125 4625
Wire Wire Line
	2125 4625 2275 4625
Wire Wire Line
	2575 4625 2750 4625
Connection ~ 2750 4625
Wire Wire Line
	3025 4525 2125 4525
Wire Wire Line
	2125 4525 2125 4625
Connection ~ 2125 4625
Wire Wire Line
	2125 4525 2125 3025
Connection ~ 2125 4525
Connection ~ 2125 3025
Wire Wire Line
	2125 3025 1700 3025
$Comp
L Device:R R32
U 1 1 5E989A1E
P 1900 4925
F 0 "R32" H 1700 4900 50  0000 L CNN
F 1 "10k" V 1900 4825 50  0000 L CNN
F 2 "R0402_1" V 1830 4925 50  0001 C CNN
F 3 "~" H 1900 4925 50  0001 C CNN
	1    1900 4925
	1    0    0    -1  
$EndComp
$Comp
L power:GND #PWR053
U 1 1 5E98DF53
P 1900 5225
F 0 "#PWR053" H 1900 4975 50  0001 C CNN
F 1 "GND" H 1900 5075 50  0000 C CNN
F 2 "" H 1900 5225 50  0001 C CNN
F 3 "" H 1900 5225 50  0001 C CNN
	1    1900 5225
	1    0    0    -1  
$EndComp
Wire Wire Line
	2350 3925 1900 3925
Wire Wire Line
	3025 4425 1875 4425
Wire Wire Line
	1675 4725 1675 4850
Wire Wire Line
	1675 4850 1550 4850
Wire Wire Line
	1550 4000 1675 4000
Wire Wire Line
	1675 4000 1675 4125
Wire Wire Line
	1250 4000 1150 4000
$Comp
L Device:C C17
U 1 1 5E9BFCE7
P 4750 4900
F 0 "C17" H 4775 5000 50  0000 L CNN
F 1 "100nF" H 4775 4800 50  0000 L CNN
F 2 "C0402_2" H 4788 4750 50  0001 C CNN
F 3 "~" H 4750 4900 50  0001 C CNN
	1    4750 4900
	1    0    0    -1  
$EndComp
$Comp
L Device:R R40
U 1 1 5E9D9181
P 4475 3650
F 0 "R40" H 4350 3650 50  0000 C CNN
F 1 "4.7K" V 4475 3650 50  0000 C CNN
F 2 "R0402_1" V 4405 3650 50  0001 C CNN
F 3 "~" H 4475 3650 50  0001 C CNN
	1    4475 3650
	-1   0    0    1   
$EndComp
$Comp
L power:+12V #PWR042
U 1 1 5E9DCF7E
P 4475 3400
F 0 "#PWR042" H 4475 3250 50  0001 C CNN
F 1 "+12V" H 4490 3573 50  0000 C CNN
F 2 "" H 4475 3400 50  0001 C CNN
F 3 "" H 4475 3400 50  0001 C CNN
	1    4475 3400
	1    0    0    -1  
$EndComp
Wire Wire Line
	3825 4425 4475 4425
Wire Wire Line
	4475 4425 4475 4175
Wire Wire Line
	4475 3800 4475 3875
Wire Wire Line
	4475 3400 4475 3500
$Comp
L Device:R R42
U 1 1 5E9F0AE2
P 5225 4900
F 0 "R42" H 5300 4900 50  0000 L CNN
F 1 "100k" V 5225 4800 50  0000 L CNN
F 2 "R0402_1" V 5155 4900 50  0001 C CNN
F 3 "~" H 5225 4900 50  0001 C CNN
	1    5225 4900
	1    0    0    -1  
$EndComp
Wire Wire Line
	4750 4525 4750 4750
Wire Wire Line
	4750 4525 5225 4525
Wire Wire Line
	5225 4525 5225 4750
Wire Wire Line
	5225 5050 5225 5125
Wire Wire Line
	5225 5125 4750 5125
Connection ~ 4750 5125
Wire Wire Line
	4750 5125 4750 5050
$Comp
L Device:R R41
U 1 1 5E9FBA51
P 5225 4250
F 0 "R41" H 5300 4250 50  0000 L CNN
F 1 "180k" V 5225 4150 50  0000 L CNN
F 2 "R0402_1" V 5155 4250 50  0001 C CNN
F 3 "~" H 5225 4250 50  0001 C CNN
	1    5225 4250
	1    0    0    -1  
$EndComp
Wire Wire Line
	4350 2425 5225 2425
Wire Wire Line
	5225 2425 5225 4100
Connection ~ 4350 2425
Wire Wire Line
	5225 4525 5225 4400
Connection ~ 5225 4525
$Comp
L power:GND #PWR049
U 1 1 5EA135B0
P 5975 4250
F 0 "#PWR049" H 5975 4000 50  0001 C CNN
F 1 "GND" H 5975 4100 50  0000 C CNN
F 2 "" H 5975 4250 50  0001 C CNN
F 3 "" H 5975 4250 50  0001 C CNN
	1    5975 4250
	1    0    0    -1  
$EndComp
$Comp
L Device:Jumper_NC_Small SJ1
U 1 1 5EA158D9
P 5500 3725
F 0 "SJ1" V 5550 3925 50  0000 R CNN
F 1 "Jumper_Small" H 5725 3625 50  0000 R CNN
F 2 "TB-CMS-AIROX-2_1" H 5500 3725 50  0001 C CNN
F 3 "~" H 5500 3725 50  0001 C CNN
	1    5500 3725
	0    -1   -1   0   
$EndComp
Wire Wire Line
	5500 3825 5500 4150
Wire Wire Line
	5500 4150 5975 4150
Wire Wire Line
	5975 4150 5975 4050
Wire Wire Line
	5975 4250 5975 4150
Connection ~ 5975 4150
Wire Wire Line
	5800 3300 5800 3375
Wire Wire Line
	5800 3375 6075 3375
Wire Wire Line
	6075 3375 6075 3650
Wire Wire Line
	5800 3375 5500 3375
Wire Wire Line
	5500 3375 5500 3625
Connection ~ 5800 3375
$Comp
L power:+BATT #PWR035
U 1 1 5EA25041
P 5800 2800
F 0 "#PWR035" H 5800 2650 50  0001 C CNN
F 1 "+BATT" H 5815 2973 50  0000 C CNN
F 2 "" H 5800 2800 50  0001 C CNN
F 3 "" H 5800 2800 50  0001 C CNN
	1    5800 2800
	1    0    0    -1  
$EndComp
Wire Wire Line
	5800 2800 5800 2900
$Comp
L power:GND #PWR056
U 1 1 5EA31DDC
P 4075 5250
F 0 "#PWR056" H 4075 5000 50  0001 C CNN
F 1 "GND" H 4075 5100 50  0000 C CNN
F 2 "" H 4075 5250 50  0001 C CNN
F 3 "" H 4075 5250 50  0001 C CNN
	1    4075 5250
	1    0    0    -1  
$EndComp
Wire Wire Line
	3825 4625 4075 4625
Wire Wire Line
	4075 4625 4075 5125
Wire Wire Line
	4750 5125 4075 5125
Connection ~ 4075 5125
Wire Wire Line
	4075 5125 4075 5250
Wire Wire Line
	3825 4525 4750 4525
Connection ~ 4750 4525
$Comp
L Device:R R43
U 1 1 5EA43664
P 6600 2775
F 0 "R43" H 6475 2775 50  0000 C CNN
F 1 "1.5M" V 6600 2775 50  0000 C CNN
F 2 "R0402_1" V 6530 2775 50  0001 C CNN
F 3 "~" H 6600 2775 50  0001 C CNN
	1    6600 2775
	-1   0    0    1   
$EndComp
$Comp
L Device:R R44
U 1 1 5EA44244
P 6600 3375
F 0 "R44" H 6475 3375 50  0000 C CNN
F 1 "680k" V 6600 3375 50  0000 C CNN
F 2 "R0402_1" V 6530 3375 50  0001 C CNN
F 3 "~" H 6600 3375 50  0001 C CNN
	1    6600 3375
	-1   0    0    1   
$EndComp
Wire Wire Line
	6600 3525 6600 4150
Wire Wire Line
	6600 4150 5975 4150
Wire Wire Line
	6600 3225 6600 3075
Wire Wire Line
	6600 2625 6600 2425
Wire Wire Line
	6600 2425 5225 2425
Connection ~ 5225 2425
$Comp
L Device:C C18
U 1 1 5EA7B49D
P 6925 3500
F 0 "C18" H 6975 3600 50  0000 L CNN
F 1 "100nF" H 6950 3400 50  0000 L CNN
F 2 "C0402_2" H 6963 3350 50  0001 C CNN
F 3 "~" H 6925 3500 50  0001 C CNN
	1    6925 3500
	1    0    0    -1  
$EndComp
$Comp
L power:GND #PWR045
U 1 1 5EA7F7B1
P 6925 3750
F 0 "#PWR045" H 6925 3500 50  0001 C CNN
F 1 "GND" H 6925 3600 50  0000 C CNN
F 2 "" H 6925 3750 50  0001 C CNN
F 3 "" H 6925 3750 50  0001 C CNN
	1    6925 3750
	1    0    0    -1  
$EndComp
Wire Wire Line
	7350 3075 6925 3075
Connection ~ 6600 3075
Wire Wire Line
	6600 3075 6600 2925
Wire Wire Line
	6925 3350 6925 3075
Connection ~ 6925 3075
Wire Wire Line
	6925 3075 6600 3075
Wire Wire Line
	6925 3650 6925 3750
$Comp
L Device:R R45
U 1 1 5EA88177
P 7750 3700
F 0 "R45" H 7875 3700 50  0000 C CNN
F 1 "59k" V 7750 3700 50  0000 C CNN
F 2 "R0402_1" V 7680 3700 50  0001 C CNN
F 3 "~" H 7750 3700 50  0001 C CNN
	1    7750 3700
	-1   0    0    1   
$EndComp
$Comp
L power:GND #PWR043
U 1 1 5EA89EC9
P 7850 3475
F 0 "#PWR043" H 7850 3225 50  0001 C CNN
F 1 "GND" H 7950 3350 50  0000 C CNN
F 2 "" H 7850 3475 50  0001 C CNN
F 3 "" H 7850 3475 50  0001 C CNN
	1    7850 3475
	1    0    0    -1  
$EndComp
Wire Wire Line
	7750 3550 7750 3475
Wire Wire Line
	7850 3475 7850 3425
Wire Wire Line
	7750 3850 7750 3900
Wire Wire Line
	7750 3900 7275 3900
Wire Wire Line
	7275 3900 7275 3275
Wire Wire Line
	7275 3275 7350 3275
$Comp
L Device:C C19
U 1 1 5EA920AC
P 8050 2725
F 0 "C19" V 7875 2650 50  0000 L CNN
F 1 "100nF" V 8150 2800 50  0000 L CNN
F 2 "C0402_2" H 8088 2575 50  0001 C CNN
F 3 "~" H 8050 2725 50  0001 C CNN
	1    8050 2725
	0    1    1    0   
$EndComp
$Comp
L power:GND #PWR037
U 1 1 5EA92EED
P 8400 2825
F 0 "#PWR037" H 8400 2575 50  0001 C CNN
F 1 "GND" H 8400 2675 50  0000 C CNN
F 2 "" H 8400 2825 50  0001 C CNN
F 3 "" H 8400 2825 50  0001 C CNN
	1    8400 2825
	1    0    0    -1  
$EndComp
Wire Wire Line
	8200 2725 8400 2725
Wire Wire Line
	8400 2725 8400 2825
Wire Wire Line
	7900 2725 7850 2725
Wire Wire Line
	7850 2725 7850 2925
Wire Wire Line
	6600 2425 7850 2425
Wire Wire Line
	7850 2425 7850 2725
Connection ~ 6600 2425
Connection ~ 7850 2725
Wire Wire Line
	5050 2200 5225 2200
Wire Wire Line
	5225 2200 5225 2425
$Comp
L Device:R R46
U 1 1 5EABD32B
P 8375 3450
F 0 "R46" H 8500 3450 50  0000 C CNN
F 1 "1M" V 8375 3450 50  0000 C CNN
F 2 "R0402_1" V 8305 3450 50  0001 C CNN
F 3 "~" H 8375 3450 50  0001 C CNN
	1    8375 3450
	-1   0    0    1   
$EndComp
Wire Wire Line
	8150 3175 8375 3175
Wire Wire Line
	8375 3175 8375 3300
Wire Wire Line
	7750 3900 8375 3900
Wire Wire Line
	8375 3900 8375 3600
Connection ~ 7750 3900
$Comp
L Device:R R47
U 1 1 5EACCEFF
P 8725 2675
F 0 "R47" H 8800 2675 50  0000 L CNN
F 1 "100k" V 8725 2575 50  0000 L CNN
F 2 "R0402_1" V 8655 2675 50  0001 C CNN
F 3 "~" H 8725 2675 50  0001 C CNN
	1    8725 2675
	1    0    0    -1  
$EndComp
$Comp
L Device:R R51
U 1 1 5EBAFA24
P 9725 2700
F 0 "R51" H 9800 2700 50  0000 L CNN
F 1 "10k" V 9725 2625 50  0000 L CNN
F 2 "R0402_1" V 9655 2700 50  0001 C CNN
F 3 "~" H 9725 2700 50  0001 C CNN
	1    9725 2700
	1    0    0    -1  
$EndComp
Wire Wire Line
	8950 2425 8725 2425
Connection ~ 7850 2425
Wire Wire Line
	8725 2525 8725 2425
Connection ~ 8725 2425
Wire Wire Line
	8725 2425 7850 2425
Wire Wire Line
	9150 2725 9150 2925
Wire Wire Line
	9150 2925 8725 2925
Wire Wire Line
	8725 2925 8725 2825
Wire Wire Line
	9150 3175 9150 2925
Connection ~ 9150 2925
Wire Wire Line
	8375 3175 9150 3175
Connection ~ 8375 3175
Wire Wire Line
	9975 2425 9725 2425
Wire Wire Line
	9725 2550 9725 2425
Connection ~ 9725 2425
Wire Wire Line
	9725 2425 9450 2425
Wire Wire Line
	9725 2850 9725 2925
Wire Wire Line
	9725 2925 10175 2925
Wire Wire Line
	10175 2925 10175 2725
Wire Wire Line
	9725 2275 9725 2425
$Comp
L power:+5V #PWR067
U 1 1 5E8C2A56
P 2000 7275
F 0 "#PWR067" H 2000 7125 50  0001 C CNN
F 1 "+5V" H 2015 7448 50  0000 C CNN
F 2 "" H 2000 7275 50  0001 C CNN
F 3 "" H 2000 7275 50  0001 C CNN
	1    2000 7275
	1    0    0    -1  
$EndComp
$Comp
L Diode:BAT54C D17
U 1 1 5E8C30D4
P 2275 7850
F 0 "D17" V 2125 7625 50  0000 L CNN
F 1 "BAT54C" V 2425 7500 50  0000 L CNN
F 2 "SOT23-1G_1" H 2350 7975 50  0001 L CNN
F 3 "http://www.diodes.com/_files/datasheets/ds11005.pdf" H 2195 7850 50  0001 C CNN
	1    2275 7850
	0    -1   1    0   
$EndComp
$Comp
L Device:R R71
U 1 1 5E8C7B05
P 2800 7325
F 0 "R71" H 2875 7325 50  0000 L CNN
F 1 "470" V 2800 7250 50  0000 L CNN
F 2 "R0805_1" V 2730 7325 50  0001 C CNN
F 3 "~" H 2800 7325 50  0001 C CNN
	1    2800 7325
	1    0    0    -1  
$EndComp
$Comp
L Device:R R67
U 1 1 5E8CF7DA
P 3125 6675
F 0 "R67" H 3200 6675 50  0000 L CNN
F 1 "100k" V 3130 6590 47  0000 L CNN
F 2 "R0402_1" V 3055 6675 50  0001 C CNN
F 3 "~" H 3125 6675 50  0001 C CNN
	1    3125 6675
	1    0    0    -1  
$EndComp
$Comp
L Device:R R68
U 1 1 5E8D133C
P 4525 7250
F 0 "R68" H 4600 7250 50  0000 L CNN
F 1 "10k" V 4525 7200 47  0000 L CNN
F 2 "R0402_1" V 4455 7250 50  0001 C CNN
F 3 "~" H 4525 7250 50  0001 C CNN
	1    4525 7250
	1    0    0    -1  
$EndComp
Wire Wire Line
	2275 7550 2275 7425
Wire Wire Line
	2275 7425 2000 7425
Wire Wire Line
	2000 7425 2000 7275
Wire Wire Line
	2275 8150 2275 8325
Wire Wire Line
	2275 8325 2000 8325
Wire Wire Line
	2000 8325 2000 7425
Connection ~ 2000 7425
Wire Wire Line
	3400 6425 3125 6425
Wire Wire Line
	3125 6425 3125 6525
Wire Wire Line
	3600 6725 3600 7000
Wire Wire Line
	3600 7000 3125 7000
Wire Wire Line
	3125 7000 3125 6825
Wire Wire Line
	2475 7850 2800 7850
Wire Wire Line
	2800 7850 2800 7475
Wire Wire Line
	3125 6425 2800 6425
Wire Wire Line
	2800 6425 2800 7175
Connection ~ 3125 6425
Wire Wire Line
	4325 6425 3800 6425
Wire Wire Line
	4525 7100 4525 7000
Connection ~ 4525 7000
Wire Wire Line
	4525 7000 4525 6725
Wire Wire Line
	3600 7000 4525 7000
Connection ~ 3600 7000
Wire Wire Line
	4525 8200 4525 8125
Wire Wire Line
	4525 7525 4525 7400
$Comp
L power:GND #PWR071
U 1 1 5E962FC1
P 4525 8200
F 0 "#PWR071" H 4525 7950 50  0001 C CNN
F 1 "GND" H 4525 8050 50  0000 C CNN
F 2 "" H 4525 8200 50  0001 C CNN
F 3 "" H 4525 8200 50  0001 C CNN
	1    4525 8200
	1    0    0    -1  
$EndComp
$Comp
L Device:R R70
U 1 1 5E97A3E3
P 4950 7950
F 0 "R70" H 5050 7950 50  0000 L CNN
F 1 "10k" V 4950 7875 47  0000 L CNN
F 2 "R0402_1" V 4880 7950 50  0001 C CNN
F 3 "~" H 4950 7950 50  0001 C CNN
	1    4950 7950
	1    0    0    -1  
$EndComp
Wire Wire Line
	4950 7725 4950 7800
Wire Wire Line
	4825 7725 4950 7725
Wire Wire Line
	4950 8100 4950 8125
Wire Wire Line
	4950 8125 4525 8125
Connection ~ 4525 8125
Wire Wire Line
	4525 8125 4525 7925
$Comp
L Diode:BAT54C D16
U 1 1 5E995B99
P 5550 7725
F 0 "D16" V 5504 7813 50  0000 L CNN
F 1 "BAT54C" V 5750 7775 50  0000 L CNN
F 2 "SOT23-1G_1" H 5625 7850 50  0001 L CNN
F 3 "http://www.diodes.com/_files/datasheets/ds11005.pdf" H 5470 7725 50  0001 C CNN
	1    5550 7725
	0    1    1    0   
$EndComp
Wire Wire Line
	5350 7725 4950 7725
Connection ~ 4950 7725
$Comp
L power:+5V #PWR068
U 1 1 5E99F3AE
P 5550 7350
F 0 "#PWR068" H 5550 7200 50  0001 C CNN
F 1 "+5V" H 5565 7523 50  0000 C CNN
F 2 "" H 5550 7350 50  0001 C CNN
F 3 "" H 5550 7350 50  0001 C CNN
	1    5550 7350
	1    0    0    -1  
$EndComp
Wire Wire Line
	5550 7425 5550 7350
$Comp
L Diode:BAT54S D9
U 1 1 5E9B9C29
P 8300 5750
F 0 "D9" H 8175 5625 50  0000 C CNN
F 1 "BAT54S" H 8300 5875 50  0000 C CNN
F 2 "SOT23-1G_1" H 8375 5875 50  0001 L CNN
F 3 "https://www.diodes.com/assets/Datasheets/ds11005.pdf" H 8180 5750 50  0001 C CNN
	1    8300 5750
	-1   0    0    1   
$EndComp
$Comp
L Device:R R48
U 1 1 5E9BACF2
P 8050 5375
F 0 "R48" V 7950 5375 50  0000 C CNN
F 1 "NC" V 8050 5375 50  0000 C CNN
F 2 "R0402_1" V 7980 5375 50  0001 C CNN
F 3 "~" H 8050 5375 50  0001 C CNN
	1    8050 5375
	0    1    1    0   
$EndComp
$Comp
L Device:R R60
U 1 1 5E9BBB0B
P 7800 4650
F 0 "R60" H 7650 4650 50  0000 C CNN
F 1 "NC" V 7800 4650 50  0000 C CNN
F 2 "R0402_1" V 7730 4650 50  0001 C CNN
F 3 "~" H 7800 4650 50  0001 C CNN
	1    7800 4650
	1    0    0    -1  
$EndComp
$Comp
L Device:C C20
U 1 1 5E9BC806
P 8050 4950
F 0 "C20" V 7875 4875 50  0000 L CNN
F 1 "330nF" V 8200 4875 50  0000 L CNN
F 2 "C0603_1" H 8088 4800 50  0001 C CNN
F 3 "~" H 8050 4950 50  0001 C CNN
	1    8050 4950
	0    1    1    0   
$EndComp
$Comp
L Device:R R49
U 1 1 5E9BE664
P 8850 5300
F 0 "R49" H 8975 5300 50  0000 C CNN
F 1 "10k" V 8850 5300 50  0000 C CNN
F 2 "R0402_1" V 8780 5300 50  0001 C CNN
F 3 "~" H 8850 5300 50  0001 C CNN
	1    8850 5300
	1    0    0    -1  
$EndComp
$Comp
L power:GND #PWR061
U 1 1 5E9BF600
P 8850 5850
F 0 "#PWR061" H 8850 5600 50  0001 C CNN
F 1 "GND" H 8850 5700 50  0000 C CNN
F 2 "" H 8850 5850 50  0001 C CNN
F 3 "" H 8850 5850 50  0001 C CNN
	1    8850 5850
	1    0    0    -1  
$EndComp
$Comp
L Device:Jumper JP1
U 1 1 5E9C0175
P 9250 5325
F 0 "JP1" V 9400 5275 50  0000 R CNN
F 1 "Jumper" V 9250 5350 50  0000 R CNN
F 2 "TB-CMS-AIROX_1" H 9250 5325 50  0001 C CNN
F 3 "~" H 9250 5325 50  0001 C CNN
	1    9250 5325
	0    -1   -1   0   
$EndComp
$Comp
L Device:C C35
U 1 1 5E9C4E7A
P 9675 5350
F 0 "C35" H 9725 5450 50  0000 L CNN
F 1 "4.7nF" H 9725 5250 50  0000 L CNN
F 2 "C0402_1" H 9713 5200 50  0001 C CNN
F 3 "~" H 9675 5350 50  0001 C CNN
	1    9675 5350
	1    0    0    -1  
$EndComp
$Comp
L Device:R R63
U 1 1 5EA06438
P 14150 7375
F 0 "R63" V 14050 7300 50  0000 L CNN
F 1 "100k" V 14155 7290 47  0000 L CNN
F 2 "R0402_1" V 14080 7375 50  0001 C CNN
F 3 "~" H 14150 7375 50  0001 C CNN
	1    14150 7375
	0    1    1    0   
$EndComp
$Comp
L Device:R R64
U 1 1 5EA09EAE
P 14150 8625
F 0 "R64" V 14050 8550 50  0000 L CNN
F 1 "100k" V 14155 8540 47  0000 L CNN
F 2 "R0402_1" V 14080 8625 50  0001 C CNN
F 3 "~" H 14150 8625 50  0001 C CNN
	1    14150 8625
	0    1    1    0   
$EndComp
$Comp
L Device:C C34
U 1 1 5EA224D5
P 12250 8325
F 0 "C34" H 12300 8425 50  0000 L CNN
F 1 "NC" H 12275 8225 50  0000 L CNN
F 2 "C0402_2" H 12288 8175 50  0001 C CNN
F 3 "~" H 12250 8325 50  0001 C CNN
	1    12250 8325
	1    0    0    -1  
$EndComp
$Comp
L power:GND #PWR072
U 1 1 5EA25B59
P 11875 8600
F 0 "#PWR072" H 11875 8350 50  0001 C CNN
F 1 "GND" H 11875 8450 50  0000 C CNN
F 2 "" H 11875 8600 50  0001 C CNN
F 3 "" H 11875 8600 50  0001 C CNN
	1    11875 8600
	1    0    0    -1  
$EndComp
$Comp
L Device:R R62
U 1 1 5EA28ABD
P 11875 8325
F 0 "R62" H 11750 8325 50  0000 C CNN
F 1 "10k" V 11875 8325 50  0000 C CNN
F 2 "R0402_1" V 11805 8325 50  0001 C CNN
F 3 "~" H 11875 8325 50  0001 C CNN
	1    11875 8325
	1    0    0    -1  
$EndComp
$Comp
L Device:R R61
U 1 1 5EA2BEBE
P 11525 8075
F 0 "R61" V 11425 8075 50  0000 C CNN
F 1 "10k" V 11525 8075 50  0000 C CNN
F 2 "R0402_1" V 11455 8075 50  0001 C CNN
F 3 "~" H 11525 8075 50  0001 C CNN
	1    11525 8075
	0    1    1    0   
$EndComp
Wire Wire Line
	14300 7375 14475 7375
Connection ~ 14475 7375
Wire Wire Line
	14475 7375 14875 7375
$Comp
L power:GND #PWR070
U 1 1 5EA49016
P 14475 8125
F 0 "#PWR070" H 14475 7875 50  0001 C CNN
F 1 "GND" H 14475 7975 50  0000 C CNN
F 2 "" H 14475 8125 50  0001 C CNN
F 3 "" H 14475 8125 50  0001 C CNN
	1    14475 8125
	1    0    0    -1  
$EndComp
Wire Wire Line
	14475 8125 14475 7975
Wire Wire Line
	14175 7775 13875 7775
Wire Wire Line
	13875 7775 13875 7375
Wire Wire Line
	13875 7375 14000 7375
Wire Wire Line
	14300 8625 14475 8625
Wire Wire Line
	14475 8825 14475 8625
Connection ~ 14475 8625
Wire Wire Line
	14475 8625 14850 8625
$Comp
L power:GND #PWR075
U 1 1 5EA71DB5
P 14475 9350
F 0 "#PWR075" H 14475 9100 50  0001 C CNN
F 1 "GND" H 14475 9200 50  0000 C CNN
F 2 "" H 14475 9350 50  0001 C CNN
F 3 "" H 14475 9350 50  0001 C CNN
	1    14475 9350
	1    0    0    -1  
$EndComp
Wire Wire Line
	14475 9350 14475 9225
Wire Wire Line
	14000 8625 13875 8625
Wire Wire Line
	13875 8625 13875 9025
Wire Wire Line
	13875 9025 14175 9025
Wire Wire Line
	13875 7775 13875 8175
Wire Wire Line
	13875 8175 13525 8175
Connection ~ 13875 7775
Wire Wire Line
	13875 8175 13875 8625
Connection ~ 13875 8175
Connection ~ 13875 8625
$Comp
L Device:C C33
U 1 1 5EAC1081
P 13450 7675
F 0 "C33" V 13625 7600 50  0000 L CNN
F 1 "100nF" V 13275 7575 50  0000 L CNN
F 2 "C0402_2" H 13488 7525 50  0001 C CNN
F 3 "~" H 13450 7675 50  0001 C CNN
	1    13450 7675
	0    -1   -1   0   
$EndComp
$Comp
L power:GND #PWR069
U 1 1 5EAD1AF4
P 13675 7825
F 0 "#PWR069" H 13675 7575 50  0001 C CNN
F 1 "GND" H 13675 7675 50  0000 C CNN
F 2 "" H 13675 7825 50  0001 C CNN
F 3 "" H 13675 7825 50  0001 C CNN
	1    13675 7825
	1    0    0    -1  
$EndComp
Wire Wire Line
	13600 7675 13675 7675
Wire Wire Line
	13675 7675 13675 7825
Wire Wire Line
	13300 7675 13225 7675
Wire Wire Line
	13225 7675 13225 7925
$Comp
L power:GND #PWR074
U 1 1 5EAE4018
P 13225 8600
F 0 "#PWR074" H 13225 8350 50  0001 C CNN
F 1 "GND" H 13225 8450 50  0000 C CNN
F 2 "" H 13225 8600 50  0001 C CNN
F 3 "" H 13225 8600 50  0001 C CNN
	1    13225 8600
	1    0    0    -1  
$EndComp
Wire Wire Line
	13225 8425 13225 8600
Wire Wire Line
	13125 8475 13125 8575
Wire Wire Line
	13125 8575 12625 8575
Wire Wire Line
	12625 8575 12625 8275
Wire Wire Line
	12625 8275 12725 8275
$Comp
L power:GND #PWR073
U 1 1 5EAFF44E
P 12250 8600
F 0 "#PWR073" H 12250 8350 50  0001 C CNN
F 1 "GND" H 12250 8450 50  0000 C CNN
F 2 "" H 12250 8600 50  0001 C CNN
F 3 "" H 12250 8600 50  0001 C CNN
	1    12250 8600
	1    0    0    -1  
$EndComp
Wire Wire Line
	12250 8475 12250 8600
Wire Wire Line
	12725 8075 12250 8075
Wire Wire Line
	12250 8075 12250 8175
Wire Wire Line
	11675 8075 11875 8075
Connection ~ 12250 8075
Wire Wire Line
	11875 8175 11875 8075
Connection ~ 11875 8075
Wire Wire Line
	11875 8075 12250 8075
Wire Wire Line
	11875 8600 11875 8475
Wire Wire Line
	13225 7675 11250 7675
Wire Wire Line
	11250 7675 11250 8075
Wire Wire Line
	11250 8075 11375 8075
Connection ~ 13225 7675
Wire Wire Line
	7900 5375 7800 5375
Wire Wire Line
	7800 4800 7800 4950
Connection ~ 7800 4950
Wire Wire Line
	7800 4950 7600 4950
Wire Wire Line
	7800 5375 7800 4950
Wire Wire Line
	8000 5750 7800 5750
Wire Wire Line
	8300 5550 8300 5375
Wire Wire Line
	8200 5375 8300 5375
Connection ~ 8300 5375
Wire Wire Line
	8300 5375 8300 4950
Wire Wire Line
	7900 4950 7800 4950
Wire Wire Line
	8200 4950 8300 4950
Connection ~ 8300 4950
Wire Wire Line
	9250 4950 9250 5025
Wire Wire Line
	8300 4950 8850 4950
Wire Wire Line
	8850 5150 8850 4950
Connection ~ 8850 4950
Wire Wire Line
	8850 4950 9250 4950
Wire Wire Line
	8850 5450 8850 5750
Wire Wire Line
	8850 5750 8600 5750
Wire Wire Line
	8850 5850 8850 5750
Connection ~ 8850 5750
Wire Wire Line
	8850 5750 9250 5750
Wire Wire Line
	9250 5750 9250 5625
Wire Wire Line
	9675 4950 9675 5200
Wire Wire Line
	9250 4950 9675 4950
Connection ~ 9250 4950
Wire Wire Line
	9675 5500 9675 5750
Wire Wire Line
	9675 5750 9250 5750
Connection ~ 9250 5750
Wire Wire Line
	9875 4950 9675 4950
Connection ~ 9675 4950
Wire Wire Line
	10175 5150 10175 5750
Wire Wire Line
	10175 5750 9675 5750
Connection ~ 9675 5750
Wire Wire Line
	10675 2425 10375 2425
$Comp
L Device:R R52
U 1 1 5ECBE030
P 10675 2700
F 0 "R52" H 10475 2700 50  0000 L CNN
F 1 "10k" V 10675 2625 50  0000 L CNN
F 2 "R0402_1" V 10605 2700 50  0001 C CNN
F 3 "~" H 10675 2700 50  0001 C CNN
	1    10675 2700
	1    0    0    -1  
$EndComp
$Comp
L power:+5V #PWR050
U 1 1 5ECFC16F
P 7800 4450
F 0 "#PWR050" H 7800 4300 50  0001 C CNN
F 1 "+5V" H 7815 4623 50  0000 C CNN
F 2 "" H 7800 4450 50  0001 C CNN
F 3 "" H 7800 4450 50  0001 C CNN
	1    7800 4450
	1    0    0    -1  
$EndComp
Wire Wire Line
	7800 4450 7800 4500
Connection ~ 10175 2925
Wire Wire Line
	10175 2925 10175 4750
Wire Wire Line
	10675 2425 10675 2550
Connection ~ 10675 2425
Wire Wire Line
	10675 2850 10675 4575
Wire Wire Line
	10675 4575 8850 4575
Wire Wire Line
	8850 4575 8850 4950
$Comp
L power:GND #PWR051
U 1 1 5EE001F8
P 12825 4875
F 0 "#PWR051" H 12825 4625 50  0001 C CNN
F 1 "GND" H 12825 4725 50  0000 C CNN
F 2 "" H 12825 4875 50  0001 C CNN
F 3 "" H 12825 4875 50  0001 C CNN
	1    12825 4875
	1    0    0    -1  
$EndComp
Wire Wire Line
	12825 4875 12825 4775
Wire Wire Line
	13225 3375 13225 3875
$Comp
L power:GND #PWR040
U 1 1 5EE5841C
P 12600 3100
F 0 "#PWR040" H 12600 2850 50  0001 C CNN
F 1 "GND" H 12600 2950 50  0000 C CNN
F 2 "" H 12600 3100 50  0001 C CNN
F 3 "" H 12600 3100 50  0001 C CNN
	1    12600 3100
	1    0    0    -1  
$EndComp
Wire Wire Line
	14650 4050 14650 4175
Wire Wire Line
	14900 4175 14650 4175
Connection ~ 14650 4175
Wire Wire Line
	14900 3850 14900 4175
$Comp
L Device:D_Schottky D13
U 1 1 5EEB540E
P 13650 3375
F 0 "D13" H 13650 3275 50  0000 C CNN
F 1 "MBRM120" H 13650 3500 50  0000 C CNN
F 2 "DO216AA_1" H 13650 3375 50  0001 C CNN
F 3 "~" H 13650 3375 50  0001 C CNN
	1    13650 3375
	-1   0    0    1   
$EndComp
Wire Wire Line
	13500 3375 13225 3375
Wire Wire Line
	13800 3375 14650 3375
Wire Wire Line
	14650 3375 14650 3750
Wire Wire Line
	14650 3375 14900 3375
Wire Wire Line
	14900 3375 14900 3550
Connection ~ 14650 3375
$Comp
L power:GND #PWR052
U 1 1 5EF0055A
P 14650 4950
F 0 "#PWR052" H 14650 4700 50  0001 C CNN
F 1 "GND" H 14650 4800 50  0000 C CNN
F 2 "" H 14650 4950 50  0001 C CNN
F 3 "" H 14650 4950 50  0001 C CNN
	1    14650 4950
	1    0    0    -1  
$EndComp
Wire Wire Line
	14650 4500 14650 4175
Wire Wire Line
	14650 4950 14650 4875
$Comp
L Device:CP C29
U 1 1 5EF41CB7
P 15200 4500
F 0 "C29" H 15250 4625 50  0000 L CNN
F 1 "10μF" H 15250 4400 50  0000 L CNN
F 2 "RC1206_1" H 15238 4350 50  0001 C CNN
F 3 "~" H 15200 4500 50  0001 C CNN
	1    15200 4500
	1    0    0    -1  
$EndComp
Wire Wire Line
	14900 3375 15200 3375
Wire Wire Line
	15200 3375 15200 4350
Connection ~ 14900 3375
Wire Wire Line
	15200 4650 15200 4875
Wire Wire Line
	15200 4875 14650 4875
Connection ~ 14650 4875
Wire Wire Line
	14650 4875 14650 4800
Wire Wire Line
	15200 3375 15475 3375
Wire Wire Line
	15475 3375 15475 3550
Connection ~ 15200 3375
Wire Wire Line
	15475 3850 15475 4025
Wire Wire Line
	15475 3200 15475 3375
Connection ~ 15475 3375
$Comp
L Device:CP C23
U 1 1 5EFCD4D1
P 11825 4850
F 0 "C23" H 11575 4950 50  0000 L CNN
F 1 "47μF" H 11600 4750 50  0000 L CNN
F 2 "C1210_1" H 11863 4700 50  0001 C CNN
F 3 "~" H 11825 4850 50  0001 C CNN
	1    11825 4850
	1    0    0    -1  
$EndComp
$Comp
L power:GND #PWR058
U 1 1 5EFCFE35
P 11825 5250
F 0 "#PWR058" H 11825 5000 50  0001 C CNN
F 1 "GND" H 11825 5100 50  0000 C CNN
F 2 "" H 11825 5250 50  0001 C CNN
F 3 "" H 11825 5250 50  0001 C CNN
	1    11825 5250
	1    0    0    -1  
$EndComp
Wire Wire Line
	11825 4475 11825 4700
$Comp
L Device:D_Schottky D12
U 1 1 5E928BE8
P 13875 6250
F 0 "D12" V 13875 6100 50  0000 C CNN
F 1 "MBRM120" H 13875 6375 50  0000 C CNN
F 2 "DO216AA_1" H 13875 6250 50  0001 C CNN
F 3 "~" H 13875 6250 50  0001 C CNN
	1    13875 6250
	0    -1   -1   0   
$EndComp
$Comp
L Device:C C24
U 1 1 5E93D7C9
P 13475 6000
F 0 "C24" V 13650 5925 50  0000 L CNN
F 1 "1uF" V 13300 5900 50  0000 L CNN
F 2 "C0805_1" H 13513 5850 50  0001 C CNN
F 3 "~" H 13475 6000 50  0001 C CNN
	1    13475 6000
	0    -1   -1   0   
$EndComp
$Comp
L power:GND #PWR064
U 1 1 5E942887
P 13875 6525
F 0 "#PWR064" H 13875 6275 50  0001 C CNN
F 1 "GND" H 13875 6375 50  0000 C CNN
F 2 "" H 13875 6525 50  0001 C CNN
F 3 "" H 13875 6525 50  0001 C CNN
	1    13875 6525
	1    0    0    -1  
$EndComp
$Comp
L Device:CP C26
U 1 1 5E946687
P 14575 6300
F 0 "C26" H 14650 6425 50  0000 L CNN
F 1 "10μF" H 14650 6200 50  0000 L CNN
F 2 "RC1206_1" H 14613 6150 50  0001 C CNN
F 3 "~" H 14575 6300 50  0001 C CNN
	1    14575 6300
	1    0    0    -1  
$EndComp
$Comp
L Device:C C32
U 1 1 5E9480AB
P 15025 6300
F 0 "C32" H 15100 6425 50  0000 L CNN
F 1 "100nF" H 15100 6200 50  0000 L CNN
F 2 "C0402_2" H 15063 6150 50  0001 C CNN
F 3 "~" H 15025 6300 50  0001 C CNN
	1    15025 6300
	1    0    0    -1  
$EndComp
$Comp
L power:GND #PWR065
U 1 1 5E948A57
P 14575 6525
F 0 "#PWR065" H 14575 6275 50  0001 C CNN
F 1 "GND" H 14575 6375 50  0000 C CNN
F 2 "" H 14575 6525 50  0001 C CNN
F 3 "" H 14575 6525 50  0001 C CNN
	1    14575 6525
	1    0    0    -1  
$EndComp
$Comp
L power:GND #PWR066
U 1 1 5E948DCB
P 15025 6525
F 0 "#PWR066" H 15025 6275 50  0001 C CNN
F 1 "GND" H 15025 6375 50  0000 C CNN
F 2 "" H 15025 6525 50  0001 C CNN
F 3 "" H 15025 6525 50  0001 C CNN
	1    15025 6525
	1    0    0    -1  
$EndComp
$Comp
L Device:R R53
U 1 1 5E95F286
P 11600 4475
F 0 "R53" V 11700 4475 50  0000 C CNN
F 1 "47k" V 11600 4475 50  0000 C CNN
F 2 "R0402_1" V 11530 4475 50  0001 C CNN
F 3 "~" H 11600 4475 50  0001 C CNN
	1    11600 4475
	0    1    1    0   
$EndComp
Wire Wire Line
	12225 4375 12175 4375
Wire Wire Line
	12225 4475 11825 4475
Wire Wire Line
	12175 4375 12175 5200
Connection ~ 11825 4475
Wire Wire Line
	12600 2750 12600 2675
Wire Wire Line
	12600 2675 12825 2675
Wire Wire Line
	12825 2675 12825 3375
Wire Wire Line
	12600 3100 12600 3050
Wire Wire Line
	13075 6000 13200 6000
Wire Wire Line
	13625 6000 13875 6000
Wire Wire Line
	13875 6525 13875 6400
Wire Wire Line
	13875 6100 13875 6000
Connection ~ 13875 6000
Wire Wire Line
	13875 6000 14100 6000
Wire Wire Line
	14400 6000 14575 6000
Wire Wire Line
	14575 6000 14575 6150
Wire Wire Line
	14575 6000 15025 6000
Wire Wire Line
	15025 6000 15025 6150
Connection ~ 14575 6000
Wire Wire Line
	14575 6525 14575 6450
Wire Wire Line
	15025 6525 15025 6450
Wire Wire Line
	15025 6000 15475 6000
Wire Wire Line
	15475 6000 15475 5900
Connection ~ 15025 6000
Wire Wire Line
	11450 4475 11350 4475
Wire Wire Line
	11350 4475 11350 6000
Wire Wire Line
	11350 6000 12775 6000
Wire Wire Line
	11825 4325 11825 4475
Wire Wire Line
	11825 4475 11750 4475
$Comp
L Device:CP C21
U 1 1 5EBD18AF
P 14075 4825
F 0 "C21" H 14125 4925 50  0000 L CNN
F 1 "47μF" H 14100 4725 50  0000 L CNN
F 2 "C1210_1" H 14113 4675 50  0001 C CNN
F 3 "~" H 14075 4825 50  0001 C CNN
	1    14075 4825
	1    0    0    -1  
$EndComp
$Comp
L Device:R R54
U 1 1 5EC27709
P 14275 4475
F 0 "R54" V 14375 4475 50  0000 C CNN
F 1 "47k" V 14275 4475 50  0000 C CNN
F 2 "R0402_1" V 14205 4475 50  0001 C CNN
F 3 "~" H 14275 4475 50  0001 C CNN
	1    14275 4475
	0    1    1    0   
$EndComp
$Comp
L power:GND #PWR060
U 1 1 5EC8139C
P 14075 5275
F 0 "#PWR060" H 14075 5025 50  0001 C CNN
F 1 "GND" H 14075 5125 50  0000 C CNN
F 2 "" H 14075 5275 50  0001 C CNN
F 3 "" H 14075 5275 50  0001 C CNN
	1    14075 5275
	1    0    0    -1  
$EndComp
Wire Wire Line
	14075 4975 14075 5275
Wire Wire Line
	14125 4350 14075 4350
$Comp
L Device:C C27
U 1 1 5ED70130
P 11900 3925
F 0 "C27" H 11950 4025 50  0000 L CNN
F 1 "100pF" H 11925 3825 50  0000 L CNN
F 2 "C0402_2" H 11938 3775 50  0001 C CNN
F 3 "~" H 11900 3925 50  0001 C CNN
	1    11900 3925
	1    0    0    -1  
$EndComp
$Comp
L Device:R R56
U 1 1 5ED71460
P 11675 3925
F 0 "R56" H 11450 3925 50  0000 L CNN
F 1 "182k" V 11675 3840 47  0000 L CNN
F 2 "R0402_1" V 11605 3925 50  0001 C CNN
F 3 "~" H 11675 3925 50  0001 C CNN
	1    11675 3925
	1    0    0    -1  
$EndComp
$Comp
L Device:R R55
U 1 1 5EDAB54A
P 13550 4950
F 0 "R55" H 13350 4950 50  0000 L CNN
F 1 "15k" V 13550 4875 47  0000 L CNN
F 2 "R0402_1" V 13480 4950 50  0001 C CNN
F 3 "~" H 13550 4950 50  0001 C CNN
	1    13550 4950
	1    0    0    -1  
$EndComp
Wire Wire Line
	12225 4275 12100 4275
Wire Wire Line
	12100 4275 12100 4175
Wire Wire Line
	12100 4175 11900 4175
Wire Wire Line
	11675 4175 11675 4075
Wire Wire Line
	11900 4075 11900 4175
Connection ~ 11900 4175
Wire Wire Line
	11900 4175 11675 4175
Wire Wire Line
	11675 3775 11675 3650
Wire Wire Line
	11675 3650 11900 3650
Wire Wire Line
	11900 3650 11900 3775
Wire Wire Line
	14575 5975 14575 5650
Wire Wire Line
	14575 5650 11200 5650
Wire Wire Line
	11200 5650 11200 3650
Wire Wire Line
	11200 3650 11675 3650
Connection ~ 11675 3650
Wire Wire Line
	13875 4175 14650 4175
Wire Wire Line
	13875 4375 13875 4175
Wire Wire Line
	13750 4275 13750 4575
Connection ~ 13750 4575
Connection ~ 13750 5200
Wire Wire Line
	13750 5100 13750 5200
Wire Wire Line
	13750 4575 13750 4800
Wire Wire Line
	12175 5200 13750 5200
Wire Wire Line
	13750 5275 13750 5200
$Comp
L power:GND #PWR059
U 1 1 5EDF07FA
P 13750 5275
F 0 "#PWR059" H 13750 5025 50  0001 C CNN
F 1 "GND" H 13750 5125 50  0000 C CNN
F 2 "" H 13750 5275 50  0001 C CNN
F 3 "" H 13750 5275 50  0001 C CNN
	1    13750 5275
	1    0    0    -1  
$EndComp
$Comp
L Device:C C25
U 1 1 5E96DA27
P 13750 4950
F 0 "C25" H 13775 5050 50  0000 L CNN
F 1 "100nF" H 13775 4850 50  0000 L CNN
F 2 "C0402_2" H 13788 4800 50  0001 C CNN
F 3 "~" H 13750 4950 50  0001 C CNN
	1    13750 4950
	1    0    0    -1  
$EndComp
Wire Wire Line
	14075 4350 14075 4475
Connection ~ 14075 4475
Wire Wire Line
	14075 4475 14075 4675
Wire Wire Line
	14125 4475 14075 4475
Wire Wire Line
	13425 4275 13750 4275
Wire Wire Line
	13425 4375 13875 4375
Wire Wire Line
	13425 4475 14075 4475
Wire Wire Line
	13425 4575 13550 4575
Wire Wire Line
	13550 4800 13550 4575
Connection ~ 13550 4575
Wire Wire Line
	13550 4575 13750 4575
Wire Wire Line
	13550 5100 13550 5425
Wire Wire Line
	13550 5425 12100 5425
Wire Wire Line
	12100 4275 12100 5425
Connection ~ 12100 4275
Wire Wire Line
	11825 5000 11825 5250
Wire Wire Line
	11350 4475 11350 3375
Connection ~ 11350 4475
Wire Wire Line
	12425 3875 12425 3525
Wire Wire Line
	12425 3525 11075 3525
Wire Wire Line
	11075 3525 11075 6425
Wire Wire Line
	11075 6425 13200 6425
Wire Wire Line
	13200 6425 13200 6000
Connection ~ 13200 6000
Wire Wire Line
	13200 6000 13325 6000
$Comp
L Device:D_Schottky D11
U 1 1 5F2092C5
P 11275 2425
F 0 "D11" H 11300 2300 50  0000 C CNN
F 1 "MBRM120" H 11350 2525 50  0000 C CNN
F 2 "DO216AA_1" H 11275 2425 50  0001 C CNN
F 3 "~" H 11275 2425 50  0001 C CNN
	1    11275 2425
	-1   0    0    1   
$EndComp
$Comp
L Device:D_Schottky D14
U 1 1 5F20A847
P 11275 2700
F 0 "D14" H 11125 2625 50  0000 C CNN
F 1 "MBRM120" H 11225 2825 50  0000 C CNN
F 2 "DO216AA_1" H 11275 2700 50  0001 C CNN
F 3 "~" H 11275 2700 50  0001 C CNN
	1    11275 2700
	-1   0    0    1   
$EndComp
$Comp
L Device:R R65
U 1 1 5F2B30E5
P 10900 2900
F 0 "R65" H 10950 2900 50  0000 L CNN
F 1 "2.2k" V 10900 2825 50  0000 L CNN
F 2 "R0402_1" V 10830 2900 50  0001 C CNN
F 3 "~" H 10900 2900 50  0001 C CNN
	1    10900 2900
	1    0    0    -1  
$EndComp
Wire Wire Line
	1900 4775 1900 3925
Wire Wire Line
	1900 5075 1900 5225
$Comp
L power:GND #PWR039
U 1 1 5F3FEC1F
P 10900 3100
F 0 "#PWR039" H 10900 2850 50  0001 C CNN
F 1 "GND" H 10900 2950 50  0000 C CNN
F 2 "" H 10900 3100 50  0001 C CNN
F 3 "" H 10900 3100 50  0001 C CNN
	1    10900 3100
	1    0    0    -1  
$EndComp
Wire Wire Line
	10675 2425 10900 2425
Wire Wire Line
	10900 2425 10900 2700
Wire Wire Line
	11125 2700 10900 2700
Wire Wire Line
	11125 2425 10900 2425
Connection ~ 10900 2425
Wire Wire Line
	11425 2425 11675 2425
$Comp
L Device:D_Schottky D10
U 1 1 5F4E475C
P 11150 1300
F 0 "D10" H 11150 1200 50  0000 C CNN
F 1 "MBRM120" H 11150 1425 50  0000 C CNN
F 2 "DO216AA_1" H 11150 1300 50  0001 C CNN
F 3 "~" H 11150 1300 50  0001 C CNN
	1    11150 1300
	-1   0    0    1   
$EndComp
$Comp
L Device:R R50
U 1 1 5F4E8BA1
P 10075 1300
F 0 "R50" V 9975 1300 50  0000 C CNN
F 1 "NC" V 10075 1300 50  0000 C CNN
F 2 "R0402_1" V 10005 1300 50  0001 C CNN
F 3 "~" H 10075 1300 50  0001 C CNN
	1    10075 1300
	0    1    1    0   
$EndComp
$Comp
L power:+5V #PWR033
U 1 1 5F560D4C
P 10675 1175
F 0 "#PWR033" H 10675 1025 50  0001 C CNN
F 1 "+5V" H 10690 1348 50  0000 C CNN
F 2 "" H 10675 1175 50  0001 C CNN
F 3 "" H 10675 1175 50  0001 C CNN
	1    10675 1175
	1    0    0    -1  
$EndComp
Wire Wire Line
	11300 1300 11675 1300
Wire Wire Line
	11675 1300 11675 2425
Connection ~ 11675 2425
Wire Wire Line
	10225 1300 10675 1300
Wire Wire Line
	9450 2425 9450 1300
Wire Wire Line
	9450 1300 9925 1300
Connection ~ 9450 2425
Wire Wire Line
	9450 2425 9350 2425
Wire Wire Line
	10675 1175 10675 1300
Connection ~ 10675 1300
Wire Wire Line
	10675 1300 11000 1300
Wire Wire Line
	11675 2425 12825 2425
Wire Wire Line
	12825 2425 12825 2675
Connection ~ 12825 2675
Wire Wire Line
	11250 7675 10925 7675
Wire Wire Line
	10925 7675 10925 3375
Wire Wire Line
	10925 3375 11175 3375
Wire Wire Line
	11175 3375 11175 3100
Wire Wire Line
	11175 3100 11675 3100
Connection ~ 11250 7675
Wire Wire Line
	11675 2425 11675 2700
Wire Wire Line
	10900 2750 10900 2700
Connection ~ 10900 2700
Wire Wire Line
	10900 3100 10900 3050
Wire Wire Line
	11425 2700 11675 2700
Connection ~ 11675 2700
Wire Wire Line
	11675 2700 11675 3100
Wire Wire Line
	5550 8025 5550 8450
Wire Wire Line
	5550 8450 7800 8450
Wire Wire Line
	7800 8450 7800 5750
Wire Wire Line
	4725 6425 4925 6425
$Comp
L power:+BATT #PWR063
U 1 1 5F852DA9
P 2800 6250
F 0 "#PWR063" H 2800 6100 50  0001 C CNN
F 1 "+BATT" H 2815 6423 50  0000 C CNN
F 2 "" H 2800 6250 50  0001 C CNN
F 3 "" H 2800 6250 50  0001 C CNN
	1    2800 6250
	1    0    0    -1  
$EndComp
Wire Wire Line
	2800 6250 2800 6425
Connection ~ 2800 6425
NoConn ~ 6175 4050
Wire Wire Line
	14425 4475 14500 4475
Wire Wire Line
	14500 4475 14500 3650
Wire Wire Line
	14500 3650 12825 3650
Connection ~ 12825 3650
Wire Wire Line
	12825 3650 12825 3875
Wire Wire Line
	14475 7375 14475 7575
Text Notes 2650 5875 0    50   ~ 0
BATTERY SWITCH CIRCUIT
Text HLabel 1150 4000 0    50   Input ~ 0
BUZ-ACT
Text HLabel 10675 2300 1    50   Output ~ 0
SUPPLY-BUZ
Text HLabel 7600 4950 0    50   Input ~ 0
STOP-INV
Text HLabel 7600 5750 0    50   Input ~ 0
INHIB-STOP-INV
Wire Wire Line
	7800 5750 7600 5750
Connection ~ 7800 5750
Wire Wire Line
	10675 2300 10675 2425
Text HLabel 5050 2200 0    50   Output ~ 0
VCHARG
Text HLabel 4925 6425 2    50   Input ~ 0
VCHARG
Wire Wire Line
	11750 4325 11825 4325
Text HLabel 9725 2275 1    50   Output ~ 0
VBAT
Text HLabel 1150 4850 0    50   Input ~ 0
SUPPLY-BUZ
Wire Wire Line
	1250 4850 1150 4850
Text HLabel 11750 4325 0    50   Input ~ 0
SHDN2
Text HLabel 14850 8625 2    50   Output ~ 0
SHDN2
Text HLabel 14875 7375 2    50   Output ~ 0
SHDN1
Text HLabel 14125 4350 2    50   Input ~ 0
SHDN1
$Comp
L GR106768_Buzzer:BQ2002C IC6
U 1 1 5FAD6DF0
P 3425 4475
F 0 "IC6" H 3425 4775 50  0000 C CNN
F 1 "BQ2002C" H 3425 4175 50  0000 C CNN
F 2 "MX.A8_COMPOSANT_1" H 3225 4425 50  0001 C CNN
F 3 "" H 3225 4425 50  0001 C CNN
	1    3425 4475
	1    0    0    -1  
$EndComp
$Comp
L GR106768_Buzzer:TLV3011 IC7
U 1 1 5FAE26F0
P 7550 3175
F 0 "IC7" H 7525 3425 50  0000 L CNN
F 1 "TLV3011" H 7400 2900 50  0000 L CNN
F 2 "SOT23-6_1" H 7550 3175 50  0001 C CNN
F 3 "" H 7550 3175 50  0001 C CNN
	1    7550 3175
	1    0    0    -1  
$EndComp
$Comp
L GR106768_Buzzer:TLV3011 IC9
U 1 1 5FAE7C4C
P 12925 8175
F 0 "IC9" H 12875 8425 50  0000 L CNN
F 1 "TLV3011" H 12750 7925 50  0000 L CNN
F 2 "SOT23-6_2" H 12925 8175 50  0001 C CNN
F 3 "" H 12925 8175 50  0001 C CNN
	1    12925 8175
	1    0    0    -1  
$EndComp
$Comp
L Regulator_Linear:LM317L_SO8 IC5
U 1 1 5E89DE00
P 2950 2425
F 0 "IC5" H 2950 2667 50  0000 C CNN
F 1 "LM317L_SO8" H 2950 2576 50  0000 C CNN
F 2 "MX.A8_COMPOSANT_1" H 2950 2625 50  0001 C CIN
F 3 "http://www.ti.com/lit/ds/snvs775k/snvs775k.pdf" H 2950 2225 50  0001 C CNN
	1    2950 2425
	1    0    0    -1  
$EndComp
$Comp
L power:-12V #PWR062
U 1 1 5E965CE1
P 15475 5900
F 0 "#PWR062" H 15475 6000 50  0001 C CNN
F 1 "-12V" H 15490 6073 50  0000 C CNN
F 2 "" H 15475 5900 50  0001 C CNN
F 3 "" H 15475 5900 50  0001 C CNN
	1    15475 5900
	1    0    0    -1  
$EndComp
$Comp
L Device:L L4
U 1 1 5E96440E
P 14250 6000
F 0 "L4" V 14350 5975 50  0000 C CNN
F 1 "15μH" V 14175 6000 50  0000 C CNN
F 2 "WETPC-S_1" H 14250 6000 50  0001 C CNN
F 3 "~" H 14250 6000 50  0001 C CNN
	1    14250 6000
	0    -1   -1   0   
$EndComp
$Comp
L Device:Q_NMOS_GSD T5
U 1 1 5E9547E2
P 2550 3925
F 0 "T5" H 2750 4000 50  0000 L CNN
F 1 "SI2312BDS" H 2175 3750 50  0000 L CNN
F 2 "SOT23-GSD_1" H 2750 4025 50  0001 C CNN
F 3 "~" H 2550 3925 50  0001 C CNN
	1    2550 3925
	1    0    0    -1  
$EndComp
$Comp
L Device:Q_NMOS_GSD T7
U 1 1 5E9651DE
P 10075 4950
F 0 "T7" H 10275 5025 50  0000 L CNN
F 1 "SI2312BDS" H 10275 4875 50  0000 L CNN
F 2 "SOT23-GSD_1" H 10275 5050 50  0001 C CNN
F 3 "~" H 10075 4950 50  0001 C CNN
	1    10075 4950
	1    0    0    -1  
$EndComp
$Comp
L Device:Q_NMOS_GSD T9
U 1 1 5E9AE83A
P 14375 9025
F 0 "T9" H 14575 9100 50  0000 L CNN
F 1 "SI2312BDS" H 14575 8950 50  0000 L CNN
F 2 "SOT23-GSD_1" H 14575 9125 50  0001 C CNN
F 3 "~" H 14375 9025 50  0001 C CNN
	1    14375 9025
	1    0    0    -1  
$EndComp
$Comp
L Device:Q_NMOS_GSD T10
U 1 1 5E9CE5CD
P 14375 7775
F 0 "T10" H 14575 7850 50  0000 L CNN
F 1 "SI2312BDS" H 14575 7700 50  0000 L CNN
F 2 "SOT23-GSD_1" H 14575 7875 50  0001 C CNN
F 3 "~" H 14375 7775 50  0001 C CNN
	1    14375 7775
	1    0    0    -1  
$EndComp
$Comp
L Device:Q_NMOS_GSD T13
U 1 1 5E9F9B84
P 4625 7725
F 0 "T13" H 4825 7800 50  0000 L CNN
F 1 "SI2312BDS" H 4825 7650 50  0000 L CNN
F 2 "SOT23-GSD_1" H 4825 7825 50  0001 C CNN
F 3 "~" H 4625 7725 50  0001 C CNN
	1    4625 7725
	-1   0    0    -1  
$EndComp
$Comp
L Device:Q_PMOS_GSD T6
U 1 1 5EA41655
P 9150 2525
F 0 "T6" V 9475 2500 50  0000 C CNN
F 1 "SI2315BDS" V 9375 2350 50  0000 C CNN
F 2 "SOT23-GSD_1" H 9350 2625 50  0001 C CNN
F 3 "~" H 9150 2525 50  0001 C CNN
	1    9150 2525
	0    1    -1   0   
$EndComp
$Comp
L Device:Q_PMOS_GSD T12
U 1 1 5EA68C0C
P 4525 6525
F 0 "T12" V 4850 6500 50  0000 C CNN
F 1 "SI2315BDS" V 4750 6500 50  0000 C CNN
F 2 "SOT23-GSD_1" H 4725 6625 50  0001 C CNN
F 3 "~" H 4525 6525 50  0001 C CNN
	1    4525 6525
	0    -1   -1   0   
$EndComp
$Comp
L Device:Q_PMOS_GSD T11
U 1 1 5EA862E4
P 3600 6525
F 0 "T11" V 3925 6500 50  0000 C CNN
F 1 "SI2315BDS" V 3825 6500 50  0000 C CNN
F 2 "SOT23-GSD_1" H 3800 6625 50  0001 C CNN
F 3 "~" H 3600 6525 50  0001 C CNN
	1    3600 6525
	0    1    -1   0   
$EndComp
$Comp
L Device:Q_PMOS_GSD T8
U 1 1 5EA64EF4
P 10175 2525
F 0 "T8" V 10500 2500 50  0000 C CNN
F 1 "SI2315BDS" V 10400 2475 50  0000 C CNN
F 2 "SOT23-GSD_1" H 10375 2625 50  0001 C CNN
F 3 "~" H 10175 2525 50  0001 C CNN
	1    10175 2525
	0    1    -1   0   
$EndComp
Wire Wire Line
	13175 3375 13225 3375
Connection ~ 13225 3375
Wire Wire Line
	12875 3375 12825 3375
Connection ~ 12825 3375
Wire Wire Line
	12825 3375 12825 3650
Wire Wire Line
	11350 3375 12825 3375
$EndSCHEMATC
